pnmr/Early-Data/ALL0003/F0003CH1.CSV

Record Length,2.500000e+03,,   0.021705600000,  -0.04000,
Sample Interval,2.000000e-08,,   0.021705620000,  -0.08000,
Trigger Point,-1.085280000000e+06,,   0.021705640000,  -0.04000,
,,,   0.021705660000,  -0.04000,
,,,   0.021705680000,   0.00000,
,,,   0.021705700000,  -0.08000,
Source,CH1,,   0.021705720000,  -0.04000,
Vertical Units,V,,   0.021705740000,  -0.04000,
Vertical Scale,1.000000e+00,,   0.021705760000,  -0.04000,
Vertical Offset,-2.720000e+00,,   0.021705780000,  -0.04000,
Horizontal Units,s,,   0.021705800000,  -0.04000,
Horizontal Scale,5.000000e-06,,   0.021705820000,  -0.04000,
Pt Fmt,Y,,   0.021705840000,  -0.04000,
Yzero,0.000000e+00,,   0.021705860000,  -0.04000,
Probe Atten,1.000000e+00,,   0.021705880000,   0.00000,
Model Number,TBS1052B,,   0.021705900000,  -0.04000,
Serial Number,C018313,,   0.021705920000,  -0.04000,
Firmware Version,FV:v4.0,,   0.021705940000,  -0.04000,
,,,0.021705960000,   0.00000,
,,,0.021705980000,  -0.12000,
,,,0.021706000000,  -0.08000,
,,,0.021706020000,  -0.08000,
,,,0.021706040000,  -0.08000,
,,,0.021706060000,  -0.08000,
,,,0.021706080000,  -0.04000,
,,,0.021706100000,  -0.04000,
,,,0.021706120000,  -0.04000,
,,,0.021706140000,  -0.04000,
,,,0.021706160000,  -0.04000,
,,,0.021706180000,  -0.04000,
,,,0.021706200000,  -0.08000,
,,,0.021706220000,  -0.04000,
,,,0.021706240000,  -0.04000,
,,,0.021706260000,  -0.04000,
,,,0.021706280000,   0.00000,
,,,0.021706300000,  -0.04000,
,,,0.021706320000,  -0.08000,
,,,0.021706340000,  -0.04000,
,,,0.021706360000,  -0.08000,
,,,0.021706380000,  -0.04000,
,,,0.021706400000,  -0.04000,
,,,0.021706420000,  -0.04000,
,,,0.021706440000,  -0.04000,
,,,0.021706460000,  -0.04000,
,,,0.021706480000,  -0.04000,
,,,0.021706500000,  -0.08000,
,,,0.021706520000,  -0.04000,
,,,0.021706540000,  -0.04000,
,,,0.021706560000,  -0.04000,
,,,0.021706580000,  -0.04000,
,,,0.021706600000,  -0.04000,
,,,0.021706620000,  -0.08000,
,,,0.021706640000,  -0.04000,
,,,0.021706660000,  -0.04000,
,,,0.021706680000,  -0.04000,
,,,0.021706700000,  -0.04000,
,,,0.021706720000,  -0.08000,
,,,0.021706740000,  -0.04000,
,,,0.021706760000,  -0.04000,
,,,0.021706780000,  -0.04000,
,,,0.021706800000,  -0.04000,
,,,0.021706820000,  -0.04000,
,,,0.021706840000,  -0.08000,
,,,0.021706860000,  -0.08000,
,,,0.021706880000,  -0.04000,
,,,0.021706900000,  -0.08000,
,,,0.021706920000,  -0.04000,
,,,0.021706940000,  -0.08000,
,,,0.021706960000,  -0.04000,
,,,0.021706980000,   0.00000,
,,,0.021707000000,  -0.04000,
,,,0.021707020000,   0.00000,
,,,0.021707040000,  -0.08000,
,,,0.021707060000,  -0.04000,
,,,0.021707080000,  -0.08000,
,,,0.021707100000,  -0.04000,
,,,0.021707120000,  -0.08000,
,,,0.021707140000,  -0.04000,
,,,0.021707160000,  -0.04000,
,,,0.021707180000,  -0.08000,
,,,0.021707200000,  -0.04000,
,,,0.021707220000,  -0.04000,
,,,0.021707240000,  -0.04000,
,,,0.021707260000,  -0.08000,
,,,0.021707280000,  -0.04000,
,,,0.021707300000,  -0.04000,
,,,0.021707320000,  -0.08000,
,,,0.021707340000,  -0.08000,
,,,0.021707360000,  -0.04000,
,,,0.021707380000,  -0.08000,
,,,0.021707400000,  -0.04000,
,,,0.021707420000,  -0.08000,
,,,0.021707440000,  -0.08000,
,,,0.021707460000,  -0.04000,
,,,0.021707480000,  -0.08000,
,,,0.021707500000,  -0.04000,
,,,0.021707520000,  -0.08000,
,,,0.021707540000,  -0.04000,
,,,0.021707560000,   0.00000,
,,,0.021707580000,  -0.04000,
,,,0.021707600000,  -0.04000,
,,,0.021707620000,  -0.08000,
,,,0.021707640000,  -0.08000,
,,,0.021707660000,  -0.04000,
,,,0.021707680000,  -0.04000,
,,,0.021707700000,  -0.04000,
,,,0.021707720000,  -0.04000,
,,,0.021707740000,   0.00000,
,,,0.021707760000,  -0.04000,
,,,0.021707780000,  -0.04000,
,,,0.021707800000,   0.00000,
,,,0.021707820000,  -0.08000,
,,,0.021707840000,   0.00000,
,,,0.021707860000,  -0.04000,
,,,0.021707880000,  -0.08000,
,,,0.021707900000,  -0.08000,
,,,0.021707920000,  -0.08000,
,,,0.021707940000,  -0.04000,
,,,0.021707960000,  -0.08000,
,,,0.021707980000,  -0.08000,
,,,0.021708000000,  -0.04000,
,,,0.021708020000,  -0.04000,
,,,0.021708040000,  -0.04000,
,,,0.021708060000,  -0.04000,
,,,0.021708080000,  -0.08000,
,,,0.021708100000,  -0.04000,
,,,0.021708120000,  -0.04000,
,,,0.021708140000,  -0.04000,
,,,0.021708160000,  -0.08000,
,,,0.021708180000,  -0.08000,
,,,0.021708200000,  -0.04000,
,,,0.021708220000,   0.00000,
,,,0.021708240000,  -0.04000,
,,,0.021708260000,  -0.04000,
,,,0.021708280000,  -0.08000,
,,,0.021708300000,  -0.08000,
,,,0.021708320000,  -0.04000,
,,,0.021708340000,  -0.04000,
,,,0.021708360000,  -0.04000,
,,,0.021708380000,  -0.04000,
,,,0.021708400000,  -0.04000,
,,,0.021708420000,   0.00000,
,,,0.021708440000,  -0.04000,
,,,0.021708460000,  -0.04000,
,,,0.021708480000,  -0.04000,
,,,0.021708500000,  -0.04000,
,,,0.021708520000,  -0.04000,
,,,0.021708540000,  -0.04000,
,,,0.021708560000,  -0.08000,
,,,0.021708580000,  -0.04000,
,,,0.021708600000,  -0.04000,
,,,0.021708620000,  -0.04000,
,,,0.021708640000,  -0.08000,
,,,0.021708660000,  -0.08000,
,,,0.021708680000,  -0.04000,
,,,0.021708700000,  -0.08000,
,,,0.021708720000,  -0.08000,
,,,0.021708740000,  -0.04000,
,,,0.021708760000,  -0.04000,
,,,0.021708780000,  -0.04000,
,,,0.021708800000,  -0.08000,
,,,0.021708820000,  -0.04000,
,,,0.021708840000,  -0.08000,
,,,0.021708860000,  -0.08000,
,,,0.021708880000,  -0.04000,
,,,0.021708900000,  -0.08000,
,,,0.021708920000,  -0.04000,
,,,0.021708940000,  -0.08000,
,,,0.021708960000,  -0.08000,
,,,0.021708980000,  -0.04000,
,,,0.021709000000,   0.00000,
,,,0.021709020000,  -0.04000,
,,,0.021709040000,  -0.04000,
,,,0.021709060000,   0.00000,
,,,0.021709080000,  -0.08000,
,,,0.021709100000,  -0.08000,
,,,0.021709120000,  -0.04000,
,,,0.021709140000,  -0.08000,
,,,0.021709160000,  -0.08000,
,,,0.021709180000,  -0.04000,
,,,0.021709200000,  -0.08000,
,,,0.021709220000,  -0.04000,
,,,0.021709240000,  -0.08000,
,,,0.021709260000,  -0.04000,
,,,0.021709280000,  -0.04000,
,,,0.021709300000,  -0.04000,
,,,0.021709320000,  -0.04000,
,,,0.021709340000,  -0.08000,
,,,0.021709360000,  -0.04000,
,,,0.021709380000,  -0.08000,
,,,0.021709400000,  -0.04000,
,,,0.021709420000,  -0.08000,
,,,0.021709440000,  -0.08000,
,,,0.021709460000,  -0.08000,
,,,0.021709480000,  -0.12000,
,,,0.021709500000,  -0.08000,
,,,0.021709520000,  -0.04000,
,,,0.021709540000,   0.00000,
,,,0.021709560000,  -0.08000,
,,,0.021709580000,  -0.04000,
,,,0.021709600000,  -0.08000,
,,,0.021709620000,  -0.04000,
,,,0.021709640000,  -0.04000,
,,,0.021709660000,  -0.08000,
,,,0.021709680000,  -0.04000,
,,,0.021709700000,  -0.04000,
,,,0.021709720000,  -0.04000,
,,,0.021709740000,  -0.04000,
,,,0.021709760000,  -0.08000,
,,,0.021709780000,  -0.04000,
,,,0.021709800000,  -0.08000,
,,,0.021709820000,  -0.08000,
,,,0.021709840000,  -0.04000,
,,,0.021709860000,  -0.04000,
,,,0.021709880000,  -0.04000,
,,,0.021709900000,  -0.04000,
,,,0.021709920000,  -0.04000,
,,,0.021709940000,  -0.08000,
,,,0.021709960000,  -0.08000,
,,,0.021709980000,  -0.08000,
,,,0.021710000000,   0.00000,
,,,0.021710020000,  -0.04000,
,,,0.021710040000,  -0.08000,
,,,0.021710060000,  -0.04000,
,,,0.021710080000,   0.00000,
,,,0.021710100000,  -0.08000,
,,,0.021710120000,  -0.04000,
,,,0.021710140000,  -0.04000,
,,,0.021710160000,  -0.08000,
,,,0.021710180000,  -0.08000,
,,,0.021710200000,  -0.08000,
,,,0.021710220000,  -0.04000,
,,,0.021710240000,  -0.08000,
,,,0.021710260000,  -0.08000,
,,,0.021710280000,  -0.04000,
,,,0.021710300000,  -0.04000,
,,,0.021710320000,  -0.04000,
,,,0.021710340000,  -0.04000,
,,,0.021710360000,  -0.08000,
,,,0.021710380000,  -0.08000,
,,,0.021710400000,  -0.04000,
,,,0.021710420000,  -0.08000,
,,,0.021710440000,  -0.04000,
,,,0.021710460000,  -0.08000,
,,,0.021710480000,  -0.08000,
,,,0.021710500000,  -0.08000,
,,,0.021710520000,   0.00000,
,,,0.021710540000,  -0.04000,
,,,0.021710560000,  -0.04000,
,,,0.021710580000,  -0.08000,
,,,0.021710600000,  -0.04000,
,,,0.021710620000,   0.00000,
,,,0.021710640000,  -0.08000,
,,,0.021710660000,  -0.12000,
,,,0.021710680000,  -0.08000,
,,,0.021710700000,  -0.12000,
,,,0.021710720000,  -0.08000,
,,,0.021710740000,  -0.04000,
,,,0.021710760000,  -0.12000,
,,,0.021710780000,  -0.04000,
,,,0.021710800000,  -0.04000,
,,,0.021710820000,  -0.08000,
,,,0.021710840000,  -0.04000,
,,,0.021710860000,  -0.04000,
,,,0.021710880000,  -0.04000,
,,,0.021710900000,  -0.04000,
,,,0.021710920000,  -0.04000,
,,,0.021710940000,  -0.08000,
,,,0.021710960000,   0.00000,
,,,0.021710980000,  -0.04000,
,,,0.021711000000,   0.00000,
,,,0.021711020000,   0.00000,
,,,0.021711040000,  -0.08000,
,,,0.021711060000,  -0.04000,
,,,0.021711080000,  -0.04000,
,,,0.021711100000,  -0.08000,
,,,0.021711120000,  -0.04000,
,,,0.021711140000,  -0.08000,
,,,0.021711160000,  -0.04000,
,,,0.021711180000,   0.00000,
,,,0.021711200000,  -0.04000,
,,,0.021711220000,  -0.04000,
,,,0.021711240000,  -0.04000,
,,,0.021711260000,  -0.04000,
,,,0.021711280000,  -0.04000,
,,,0.021711300000,  -0.08000,
,,,0.021711320000,   0.00000,
,,,0.021711340000,  -0.04000,
,,,0.021711360000,  -0.04000,
,,,0.021711380000,   0.00000,
,,,0.021711400000,  -0.04000,
,,,0.021711420000,   0.00000,
,,,0.021711440000,  -0.08000,
,,,0.021711460000,  -0.04000,
,,,0.021711480000,  -0.04000,
,,,0.021711500000,  -0.08000,
,,,0.021711520000,  -0.04000,
,,,0.021711540000,  -0.04000,
,,,0.021711560000,  -0.04000,
,,,0.021711580000,  -0.04000,
,,,0.021711600000,  -0.04000,
,,,0.021711620000,  -0.04000,
,,,0.021711640000,  -0.04000,
,,,0.021711660000,  -0.04000,
,,,0.021711680000,   0.00000,
,,,0.021711700000,  -0.04000,
,,,0.021711720000,  -0.04000,
,,,0.021711740000,  -0.12000,
,,,0.021711760000,  -0.08000,
,,,0.021711780000,  -0.04000,
,,,0.021711800000,   0.04000,
,,,0.021711820000,  -0.04000,
,,,0.021711840000,  -0.04000,
,,,0.021711860000,  -0.08000,
,,,0.021711880000,  -0.04000,
,,,0.021711900000,   0.00000,
,,,0.021711920000,  -0.04000,
,,,0.021711940000,  -0.04000,
,,,0.021711960000,  -0.04000,
,,,0.021711980000,  -0.04000,
,,,0.021712000000,  -0.08000,
,,,0.021712020000,  -0.04000,
,,,0.021712040000,  -0.04000,
,,,0.021712060000,  -0.04000,
,,,0.021712080000,  -0.04000,
,,,0.021712100000,  -0.04000,
,,,0.021712120000,  -0.04000,
,,,0.021712140000,  -0.04000,
,,,0.021712160000,  -0.08000,
,,,0.021712180000,  -0.04000,
,,,0.021712200000,  -0.04000,
,,,0.021712220000,  -0.08000,
,,,0.021712240000,  -0.04000,
,,,0.021712260000,  -0.04000,
,,,0.021712280000,  -0.04000,
,,,0.021712300000,  -0.04000,
,,,0.021712320000,   0.00000,
,,,0.021712340000,  -0.04000,
,,,0.021712360000,  -0.08000,
,,,0.021712380000,  -0.04000,
,,,0.021712400000,  -0.04000,
,,,0.021712420000,  -0.04000,
,,,0.021712440000,  -0.08000,
,,,0.021712460000,  -0.04000,
,,,0.021712480000,  -0.04000,
,,,0.021712500000,  -0.08000,
,,,0.021712520000,   0.00000,
,,,0.021712540000,  -0.08000,
,,,0.021712560000,  -0.08000,
,,,0.021712580000,  -0.08000,
,,,0.021712600000,  -0.04000,
,,,0.021712620000,  -0.08000,
,,,0.021712640000,  -0.08000,
,,,0.021712660000,   0.00000,
,,,0.021712680000,  -0.08000,
,,,0.021712700000,   0.00000,
,,,0.021712720000,  -0.04000,
,,,0.021712740000,   0.00000,
,,,0.021712760000,  -0.04000,
,,,0.021712780000,  -0.08000,
,,,0.021712800000,   3.00000,
,,,0.021712820000,   3.80000,
,,,0.021712840000,   4.44000,
,,,0.021712860000,   4.52000,
,,,0.021712880000,   4.52000,
,,,0.021712900000,   4.56000,
,,,0.021712920000,   4.56000,
,,,0.021712940000,   4.56000,
,,,0.021712960000,   4.60000,
,,,0.021712980000,   4.56000,
,,,0.021713000000,   4.52000,
,,,0.021713020000,   4.60000,
,,,0.021713040000,   4.60000,
,,,0.021713060000,   4.52000,
,,,0.021713080000,   4.52000,
,,,0.021713100000,   4.60000,
,,,0.021713120000,   4.56000,
,,,0.021713140000,   4.60000,
,,,0.021713160000,   4.60000,
,,,0.021713180000,   4.56000,
,,,0.021713200000,   4.60000,
,,,0.021713220000,   4.56000,
,,,0.021713240000,   4.60000,
,,,0.021713260000,   4.60000,
,,,0.021713280000,   4.60000,
,,,0.021713300000,   4.60000,
,,,0.021713320000,   4.64000,
,,,0.021713340000,   4.64000,
,,,0.021713360000,   4.64000,
,,,0.021713380000,   4.64000,
,,,0.021713400000,   4.64000,
,,,0.021713420000,   4.64000,
,,,0.021713440000,   4.64000,
,,,0.021713460000,   4.68000,
,,,0.021713480000,   4.64000,
,,,0.021713500000,   4.60000,
,,,0.021713520000,   4.64000,
,,,0.021713540000,   4.64000,
,,,0.021713560000,   4.68000,
,,,0.021713580000,   4.64000,
,,,0.021713600000,   4.64000,
,,,0.021713620000,   4.64000,
,,,0.021713640000,   4.64000,
,,,0.021713660000,   4.64000,
,,,0.021713680000,   4.60000,
,,,0.021713700000,   4.64000,
,,,0.021713720000,   4.64000,
,,,0.021713740000,   4.64000,
,,,0.021713760000,   4.60000,
,,,0.021713780000,   4.60000,
,,,0.021713800000,   4.64000,
,,,0.021713820000,   4.64000,
,,,0.021713840000,   4.60000,
,,,0.021713860000,   4.64000,
,,,0.021713880000,   4.60000,
,,,0.021713900000,   4.60000,
,,,0.021713920000,   4.64000,
,,,0.021713940000,   4.60000,
,,,0.021713960000,   4.60000,
,,,0.021713980000,   4.64000,
,,,0.021714000000,   4.64000,
,,,0.021714020000,   4.60000,
,,,0.021714040000,   4.60000,
,,,0.021714060000,   4.64000,
,,,0.021714080000,   4.60000,
,,,0.021714100000,   4.64000,
,,,0.021714120000,   4.64000,
,,,0.021714140000,   4.64000,
,,,0.021714160000,   4.64000,
,,,0.021714180000,   4.64000,
,,,0.021714200000,   4.60000,
,,,0.021714220000,   4.64000,
,,,0.021714240000,   4.60000,
,,,0.021714260000,   4.64000,
,,,0.021714280000,   4.64000,
,,,0.021714300000,   4.64000,
,,,0.021714320000,   4.68000,
,,,0.021714340000,   4.64000,
,,,0.021714360000,   4.64000,
,,,0.021714380000,   4.64000,
,,,0.021714400000,   4.64000,
,,,0.021714420000,   4.64000,
,,,0.021714440000,   4.60000,
,,,0.021714460000,   4.64000,
,,,0.021714480000,   4.60000,
,,,0.021714500000,   4.64000,
,,,0.021714520000,   4.64000,
,,,0.021714540000,   4.60000,
,,,0.021714560000,   4.64000,
,,,0.021714580000,   4.64000,
,,,0.021714600000,   4.64000,
,,,0.021714620000,   4.68000,
,,,0.021714640000,   4.64000,
,,,0.021714660000,   4.64000,
,,,0.021714680000,   4.60000,
,,,0.021714700000,   4.68000,
,,,0.021714720000,   4.64000,
,,,0.021714740000,   4.64000,
,,,0.021714760000,   4.60000,
,,,0.021714780000,   4.60000,
,,,0.021714800000,   4.64000,
,,,0.021714820000,   4.64000,
,,,0.021714840000,   4.60000,
,,,0.021714860000,   4.64000,
,,,0.021714880000,   4.60000,
,,,0.021714900000,   4.64000,
,,,0.021714920000,   4.60000,
,,,0.021714940000,   4.64000,
,,,0.021714960000,   4.64000,
,,,0.021714980000,   4.64000,
,,,0.021715000000,   4.64000,
,,,0.021715020000,   4.60000,
,,,0.021715040000,   4.64000,
,,,0.021715060000,   4.64000,
,,,0.021715080000,   4.64000,
,,,0.021715100000,   4.60000,
,,,0.021715120000,   4.64000,
,,,0.021715140000,   4.60000,
,,,0.021715160000,   4.60000,
,,,0.021715180000,   4.64000,
,,,0.021715200000,   4.60000,
,,,0.021715220000,   4.68000,
,,,0.021715240000,   4.64000,
,,,0.021715260000,   4.64000,
,,,0.021715280000,   4.68000,
,,,0.021715300000,   4.64000,
,,,0.021715320000,   4.64000,
,,,0.021715340000,   4.68000,
,,,0.021715360000,   4.68000,
,,,0.021715380000,   4.60000,
,,,0.021715400000,   4.64000,
,,,0.021715420000,   4.64000,
,,,0.021715440000,   4.68000,
,,,0.021715460000,   4.64000,
,,,0.021715480000,   4.68000,
,,,0.021715500000,   4.60000,
,,,0.021715520000,   4.64000,
,,,0.021715540000,   4.64000,
,,,0.021715560000,   4.64000,
,,,0.021715580000,   4.64000,
,,,0.021715600000,   4.64000,
,,,0.021715620000,   4.64000,
,,,0.021715640000,   4.64000,
,,,0.021715660000,   4.64000,
,,,0.021715680000,   4.68000,
,,,0.021715700000,   4.64000,
,,,0.021715720000,   4.64000,
,,,0.021715740000,   4.68000,
,,,0.021715760000,   4.60000,
,,,0.021715780000,   4.64000,
,,,0.021715800000,   4.64000,
,,,0.021715820000,   4.64000,
,,,0.021715840000,   4.64000,
,,,0.021715860000,   4.64000,
,,,0.021715880000,   4.64000,
,,,0.021715900000,   4.64000,
,,,0.021715920000,   4.60000,
,,,0.021715940000,   4.68000,
,,,0.021715960000,   4.64000,
,,,0.021715980000,   4.60000,
,,,0.021716000000,   4.64000,
,,,0.021716020000,   4.60000,
,,,0.021716040000,   4.68000,
,,,0.021716060000,   4.64000,
,,,0.021716080000,   4.64000,
,,,0.021716100000,   4.60000,
,,,0.021716120000,   4.64000,
,,,0.021716140000,   4.68000,
,,,0.021716160000,   4.64000,
,,,0.021716180000,   4.60000,
,,,0.021716200000,   4.64000,
,,,0.021716220000,   4.64000,
,,,0.021716240000,   4.64000,
,,,0.021716260000,   4.68000,
,,,0.021716280000,   4.64000,
,,,0.021716300000,   4.64000,
,,,0.021716320000,   4.64000,
,,,0.021716340000,   4.64000,
,,,0.021716360000,   4.68000,
,,,0.021716380000,   4.68000,
,,,0.021716400000,   4.68000,
,,,0.021716420000,   4.64000,
,,,0.021716440000,   4.64000,
,,,0.021716460000,   4.64000,
,,,0.021716480000,   4.68000,
,,,0.021716500000,   4.64000,
,,,0.021716520000,   4.64000,
,,,0.021716540000,   4.64000,
,,,0.021716560000,   4.68000,
,,,0.021716580000,   4.64000,
,,,0.021716600000,   4.60000,
,,,0.021716620000,   4.68000,
,,,0.021716640000,   4.68000,
,,,0.021716660000,   4.64000,
,,,0.021716680000,   4.68000,
,,,0.021716700000,   4.64000,
,,,0.021716720000,   4.64000,
,,,0.021716740000,   4.64000,
,,,0.021716760000,   4.64000,
,,,0.021716780000,   4.64000,
,,,0.021716800000,   4.64000,
,,,0.021716820000,   4.64000,
,,,0.021716840000,   4.64000,
,,,0.021716860000,   4.64000,
,,,0.021716880000,   4.64000,
,,,0.021716900000,   4.68000,
,,,0.021716920000,   4.68000,
,,,0.021716940000,   4.60000,
,,,0.021716960000,   4.64000,
,,,0.021716980000,   4.64000,
,,,0.021717000000,   4.64000,
,,,0.021717020000,   4.64000,
,,,0.021717040000,   4.64000,
,,,0.021717060000,   4.64000,
,,,0.021717080000,   4.64000,
,,,0.021717100000,   4.60000,
,,,0.021717120000,   4.64000,
,,,0.021717140000,   4.64000,
,,,0.021717160000,   4.68000,
,,,0.021717180000,   4.64000,
,,,0.021717200000,   4.64000,
,,,0.021717220000,   4.64000,
,,,0.021717240000,   4.68000,
,,,0.021717260000,   4.64000,
,,,0.021717280000,   4.64000,
,,,0.021717300000,   4.68000,
,,,0.021717320000,   4.68000,
,,,0.021717340000,   4.64000,
,,,0.021717360000,   4.68000,
,,,0.021717380000,   4.68000,
,,,0.021717400000,   4.68000,
,,,0.021717420000,   4.68000,
,,,0.021717440000,   4.64000,
,,,0.021717460000,   4.64000,
,,,0.021717480000,   4.64000,
,,,0.021717500000,   4.64000,
,,,0.021717520000,   4.64000,
,,,0.021717540000,   4.68000,
,,,0.021717560000,   4.64000,
,,,0.021717580000,   4.64000,
,,,0.021717600000,   4.64000,
,,,0.021717620000,   4.64000,
,,,0.021717640000,   4.64000,
,,,0.021717660000,   4.64000,
,,,0.021717680000,   4.64000,
,,,0.021717700000,   4.64000,
,,,0.021717720000,   4.68000,
,,,0.021717740000,   4.64000,
,,,0.021717760000,   4.64000,
,,,0.021717780000,   4.68000,
,,,0.021717800000,   4.60000,
,,,0.021717820000,   4.68000,
,,,0.021717840000,   4.68000,
,,,0.021717860000,   4.64000,
,,,0.021717880000,   4.64000,
,,,0.021717900000,   4.64000,
,,,0.021717920000,   4.64000,
,,,0.021717940000,   4.64000,
,,,0.021717960000,   4.64000,
,,,0.021717980000,   4.68000,
,,,0.021718000000,   4.64000,
,,,0.021718020000,   4.64000,
,,,0.021718040000,   4.64000,
,,,0.021718060000,   4.68000,
,,,0.021718080000,   4.68000,
,,,0.021718100000,   4.64000,
,,,0.021718120000,   4.64000,
,,,0.021718140000,   4.68000,
,,,0.021718160000,   4.64000,
,,,0.021718180000,   4.64000,
,,,0.021718200000,   4.68000,
,,,0.021718220000,   4.64000,
,,,0.021718240000,   4.68000,
,,,0.021718260000,   4.64000,
,,,0.021718280000,   4.64000,
,,,0.021718300000,   4.64000,
,,,0.021718320000,   4.64000,
,,,0.021718340000,   4.68000,
,,,0.021718360000,   4.64000,
,,,0.021718380000,   4.64000,
,,,0.021718400000,   4.60000,
,,,0.021718420000,   4.60000,
,,,0.021718440000,   4.64000,
,,,0.021718460000,   4.68000,
,,,0.021718480000,   4.68000,
,,,0.021718500000,   4.68000,
,,,0.021718520000,   4.64000,
,,,0.021718540000,   4.68000,
,,,0.021718560000,   4.68000,
,,,0.021718580000,   4.60000,
,,,0.021718600000,   4.68000,
,,,0.021718620000,   4.68000,
,,,0.021718640000,   4.60000,
,,,0.021718660000,   4.68000,
