pnmr/SS-relaxation-mineral-water/Method-1/ALL0067/F0067CH1.CSV

Record Length,2.500000e+03,,   0.066580000000,   0.29000,
Sample Interval,2.000000e-06,,   0.066582000000,   0.29000,
Trigger Point,-3.329000000000e+04,,   0.066584000000,   0.29000,
,,,   0.066586000000,   0.29000,
,,,   0.066588000000,   0.29200,
,,,   0.066590000000,   0.29000,
Source,CH1,,   0.066592000000,   0.29000,
Vertical Units,V,,   0.066594000000,   0.29000,
Vertical Scale,5.000000e-02,,   0.066596000000,   0.29000,
Vertical Offset,-3.960000e-01,,   0.066598000000,   0.29000,
Horizontal Units,s,,   0.066600000000,   0.29000,
Horizontal Scale,5.000000e-04,,   0.066602000000,   0.29000,
Pt Fmt,Y,,   0.066604000000,   0.29000,
Yzero,0.000000e+00,,   0.066606000000,   0.29000,
Probe Atten,1.000000e+00,,   0.066608000000,   0.29200,
Model Number,TBS1052B,,   0.066610000000,   0.29000,
Serial Number,C018313,,   0.066612000000,   0.29000,
Firmware Version,FV:v4.06,,   0.066614000000,   0.29000,
,,,0.066616000000,   0.29000,
,,,0.066618000000,   0.29000,
,,,0.066620000000,   0.29000,
,,,0.066622000000,   0.29000,
,,,0.066624000000,   0.28800,
,,,0.066626000000,   0.29000,
,,,0.066628000000,   0.28800,
,,,0.066630000000,   0.29000,
,,,0.066632000000,   0.29000,
,,,0.066634000000,   0.28800,
,,,0.066636000000,   0.29000,
,,,0.066638000000,   0.28800,
,,,0.066640000000,   0.29000,
,,,0.066642000000,   0.29000,
,,,0.066644000000,   0.29000,
,,,0.066646000000,   0.29000,
,,,0.066648000000,   0.29000,
,,,0.066650000000,   0.29000,
,,,0.066652000000,   0.29000,
,,,0.066654000000,   0.28800,
,,,0.066656000000,   0.29000,
,,,0.066658000000,   0.29000,
,,,0.066660000000,   0.29000,
,,,0.066662000000,   0.28800,
,,,0.066664000000,   0.28800,
,,,0.066666000000,   0.28800,
,,,0.066668000000,   0.29000,
,,,0.066670000000,   0.29000,
,,,0.066672000000,   0.29000,
,,,0.066674000000,   0.29000,
,,,0.066676000000,   0.29000,
,,,0.066678000000,   0.29000,
,,,0.066680000000,   0.29000,
,,,0.066682000000,   0.29000,
,,,0.066684000000,   0.28800,
,,,0.066686000000,   0.29000,
,,,0.066688000000,   0.28800,
,,,0.066690000000,   0.28800,
,,,0.066692000000,   0.28800,
,,,0.066694000000,   0.28800,
,,,0.066696000000,   0.29000,
,,,0.066698000000,   0.29000,
,,,0.066700000000,   0.29000,
,,,0.066702000000,   0.29000,
,,,0.066704000000,   0.29000,
,,,0.066706000000,   0.29000,
,,,0.066708000000,   0.29000,
,,,0.066710000000,   0.29000,
,,,0.066712000000,   0.29000,
,,,0.066714000000,   0.29000,
,,,0.066716000000,   0.29000,
,,,0.066718000000,   0.29200,
,,,0.066720000000,   0.29000,
,,,0.066722000000,   0.29000,
,,,0.066724000000,   0.29000,
,,,0.066726000000,   0.29000,
,,,0.066728000000,   0.29000,
,,,0.066730000000,   0.28800,
,,,0.066732000000,   0.28800,
,,,0.066734000000,   0.28800,
,,,0.066736000000,   0.28800,
,,,0.066738000000,   0.28800,
,,,0.066740000000,   0.28800,
,,,0.066742000000,   0.28800,
,,,0.066744000000,   0.29000,
,,,0.066746000000,   0.28800,
,,,0.066748000000,   0.29000,
,,,0.066750000000,   0.29000,
,,,0.066752000000,   0.29000,
,,,0.066754000000,   0.28800,
,,,0.066756000000,   0.29000,
,,,0.066758000000,   0.28800,
,,,0.066760000000,   0.28800,
,,,0.066762000000,   0.29000,
,,,0.066764000000,   0.28800,
,,,0.066766000000,   0.29000,
,,,0.066768000000,   0.28800,
,,,0.066770000000,   0.28800,
,,,0.066772000000,   0.28800,
,,,0.066774000000,   0.28800,
,,,0.066776000000,   0.28800,
,,,0.066778000000,   0.28800,
,,,0.066780000000,   0.28800,
,,,0.066782000000,   0.29000,
,,,0.066784000000,   0.28800,
,,,0.066786000000,   0.29000,
,,,0.066788000000,   0.28800,
,,,0.066790000000,   0.29200,
,,,0.066792000000,   0.29200,
,,,0.066794000000,   0.29000,
,,,0.066796000000,   0.29000,
,,,0.066798000000,   0.29000,
,,,0.066800000000,   0.29000,
,,,0.066802000000,   0.29000,
,,,0.066804000000,   0.28800,
,,,0.066806000000,   0.29000,
,,,0.066808000000,   0.29000,
,,,0.066810000000,   0.29000,
,,,0.066812000000,   0.28800,
,,,0.066814000000,   0.29000,
,,,0.066816000000,   0.28800,
,,,0.066818000000,   0.28800,
,,,0.066820000000,   0.29000,
,,,0.066822000000,   0.29000,
,,,0.066824000000,   0.28800,
,,,0.066826000000,   0.28800,
,,,0.066828000000,   0.29000,
,,,0.066830000000,   0.29000,
,,,0.066832000000,   0.29000,
,,,0.066834000000,   0.29000,
,,,0.066836000000,   0.29000,
,,,0.066838000000,   0.29000,
,,,0.066840000000,   0.29000,
,,,0.066842000000,   0.29200,
,,,0.066844000000,   0.29200,
,,,0.066846000000,   0.29200,
,,,0.066848000000,   0.29200,
,,,0.066850000000,   0.29000,
,,,0.066852000000,   0.29200,
,,,0.066854000000,   0.29200,
,,,0.066856000000,   0.29200,
,,,0.066858000000,   0.29200,
,,,0.066860000000,   0.29400,
,,,0.066862000000,   0.29000,
,,,0.066864000000,   0.29000,
,,,0.066866000000,   0.29000,
,,,0.066868000000,   0.29200,
,,,0.066870000000,   0.29200,
,,,0.066872000000,   0.29000,
,,,0.066874000000,   0.29000,
,,,0.066876000000,   0.29000,
,,,0.066878000000,   0.29200,
,,,0.066880000000,   0.29200,
,,,0.066882000000,   0.29200,
,,,0.066884000000,   0.29200,
,,,0.066886000000,   0.29200,
,,,0.066888000000,   0.29000,
,,,0.066890000000,   0.29200,
,,,0.066892000000,   0.29200,
,,,0.066894000000,   0.29400,
,,,0.066896000000,   0.29400,
,,,0.066898000000,   0.29200,
,,,0.066900000000,   0.29200,
,,,0.066902000000,   0.29200,
,,,0.066904000000,   0.29200,
,,,0.066906000000,   0.29400,
,,,0.066908000000,   0.29400,
,,,0.066910000000,   0.29600,
,,,0.066912000000,   0.29600,
,,,0.066914000000,   0.29400,
,,,0.066916000000,   0.29400,
,,,0.066918000000,   0.29200,
,,,0.066920000000,   0.29200,
,,,0.066922000000,   0.29200,
,,,0.066924000000,   0.29400,
,,,0.066926000000,   0.29800,
,,,0.066928000000,   0.30000,
,,,0.066930000000,   0.29800,
,,,0.066932000000,   0.29800,
,,,0.066934000000,   0.29600,
,,,0.066936000000,   0.29800,
,,,0.066938000000,   0.29800,
,,,0.066940000000,   0.29600,
,,,0.066942000000,   0.29800,
,,,0.066944000000,   0.29800,
,,,0.066946000000,   0.30000,
,,,0.066948000000,   0.30200,
,,,0.066950000000,   0.30400,
,,,0.066952000000,   0.30800,
,,,0.066954000000,   0.30800,
,,,0.066956000000,   0.30600,
,,,0.066958000000,   0.30600,
,,,0.066960000000,   0.30800,
,,,0.066962000000,   0.30800,
,,,0.066964000000,   0.31200,
,,,0.066966000000,   0.31200,
,,,0.066968000000,   0.31200,
,,,0.066970000000,   0.31200,
,,,0.066972000000,   0.31200,
,,,0.066974000000,   0.31000,
,,,0.066976000000,   0.30800,
,,,0.066978000000,   0.31000,
,,,0.066980000000,   0.31200,
,,,0.066982000000,   0.31000,
,,,0.066984000000,   0.30800,
,,,0.066986000000,   0.31000,
,,,0.066988000000,   0.31000,
,,,0.066990000000,   0.31000,
,,,0.066992000000,   0.31600,
,,,0.066994000000,   0.31800,
,,,0.066996000000,   0.32000,
,,,0.066998000000,   0.32000,
,,,0.067000000000,   0.32000,
,,,0.067002000000,   0.32000,
,,,0.067004000000,   0.32200,
,,,0.067006000000,   0.32600,
,,,0.067008000000,   0.32400,
,,,0.067010000000,   0.32000,
,,,0.067012000000,   0.31800,
,,,0.067014000000,   0.31800,
,,,0.067016000000,   0.32000,
,,,0.067018000000,   0.32400,
,,,0.067020000000,   0.32400,
,,,0.067022000000,   0.32400,
,,,0.067024000000,   0.32400,
,,,0.067026000000,   0.32200,
,,,0.067028000000,   0.32000,
,,,0.067030000000,   0.32200,
,,,0.067032000000,   0.32200,
,,,0.067034000000,   0.31600,
,,,0.067036000000,   0.31400,
,,,0.067038000000,   0.31200,
,,,0.067040000000,   0.31200,
,,,0.067042000000,   0.31000,
,,,0.067044000000,   0.31000,
,,,0.067046000000,   0.31200,
,,,0.067048000000,   0.31400,
,,,0.067050000000,   0.31200,
,,,0.067052000000,   0.31200,
,,,0.067054000000,   0.31800,
,,,0.067056000000,   0.32000,
,,,0.067058000000,   0.31800,
,,,0.067060000000,   0.31600,
,,,0.067062000000,   0.31400,
,,,0.067064000000,   0.31000,
,,,0.067066000000,   0.31200,
,,,0.067068000000,   0.31200,
,,,0.067070000000,   0.31000,
,,,0.067072000000,   0.30800,
,,,0.067074000000,   0.30800,
,,,0.067076000000,   0.31000,
,,,0.067078000000,   0.31000,
,,,0.067080000000,   0.30800,
,,,0.067082000000,   0.30800,
,,,0.067084000000,   0.30600,
,,,0.067086000000,   0.30400,
,,,0.067088000000,   0.30400,
,,,0.067090000000,   0.30400,
,,,0.067092000000,   0.30600,
,,,0.067094000000,   0.30200,
,,,0.067096000000,   0.30200,
,,,0.067098000000,   0.30000,
,,,0.067100000000,   0.29800,
,,,0.067102000000,   0.30000,
,,,0.067104000000,   0.29800,
,,,0.067106000000,   0.29800,
,,,0.067108000000,   0.29600,
,,,0.067110000000,   0.29800,
,,,0.067112000000,   0.30000,
,,,0.067114000000,   0.29800,
,,,0.067116000000,   0.29600,
,,,0.067118000000,   0.29800,
,,,0.067120000000,   0.29800,
,,,0.067122000000,   0.29600,
,,,0.067124000000,   0.29400,
,,,0.067126000000,   0.29200,
,,,0.067128000000,   0.29200,
,,,0.067130000000,   0.29000,
,,,0.067132000000,   0.29200,
,,,0.067134000000,   0.29200,
,,,0.067136000000,   0.29200,
,,,0.067138000000,   0.29000,
,,,0.067140000000,   0.29000,
,,,0.067142000000,   0.29200,
,,,0.067144000000,   0.29000,
,,,0.067146000000,   0.29000,
,,,0.067148000000,   0.29000,
,,,0.067150000000,   0.29400,
,,,0.067152000000,   0.29400,
,,,0.067154000000,   0.29200,
,,,0.067156000000,   0.29200,
,,,0.067158000000,   0.29000,
,,,0.067160000000,   0.29000,
,,,0.067162000000,   0.29000,
,,,0.067164000000,   0.29000,
,,,0.067166000000,   0.29000,
,,,0.067168000000,   0.29000,
,,,0.067170000000,   0.29000,
,,,0.067172000000,   0.28800,
,,,0.067174000000,   0.29000,
,,,0.067176000000,   0.29000,
,,,0.067178000000,   0.29000,
,,,0.067180000000,   0.29200,
,,,0.067182000000,   0.29200,
,,,0.067184000000,   0.29000,
,,,0.067186000000,   0.29200,
,,,0.067188000000,   0.29000,
,,,0.067190000000,   0.29200,
,,,0.067192000000,   0.29000,
,,,0.067194000000,   0.29200,
,,,0.067196000000,   0.29200,
,,,0.067198000000,   0.29000,
,,,0.067200000000,   0.29000,
,,,0.067202000000,   0.29000,
,,,0.067204000000,   0.29000,
,,,0.067206000000,   0.28800,
,,,0.067208000000,   0.29000,
,,,0.067210000000,   0.29000,
,,,0.067212000000,   0.29000,
,,,0.067214000000,   0.29000,
,,,0.067216000000,   0.29000,
,,,0.067218000000,   0.29000,
,,,0.067220000000,   0.29000,
,,,0.067222000000,   0.29000,
,,,0.067224000000,   0.29000,
,,,0.067226000000,   0.29000,
,,,0.067228000000,   0.29000,
,,,0.067230000000,   0.29000,
,,,0.067232000000,   0.29000,
,,,0.067234000000,   0.29000,
,,,0.067236000000,   0.28800,
,,,0.067238000000,   0.29000,
,,,0.067240000000,   0.28800,
,,,0.067242000000,   0.29000,
,,,0.067244000000,   0.28800,
,,,0.067246000000,   0.28800,
,,,0.067248000000,   0.28800,
,,,0.067250000000,   0.28800,
,,,0.067252000000,   0.28800,
,,,0.067254000000,   0.28800,
,,,0.067256000000,   0.29000,
,,,0.067258000000,   0.28800,
,,,0.067260000000,   0.28800,
,,,0.067262000000,   0.28800,
,,,0.067264000000,   0.29000,
,,,0.067266000000,   0.29000,
,,,0.067268000000,   0.29000,
,,,0.067270000000,   0.29000,
,,,0.067272000000,   0.29000,
,,,0.067274000000,   0.29000,
,,,0.067276000000,   0.28800,
,,,0.067278000000,   0.28800,
,,,0.067280000000,   0.28800,
,,,0.067282000000,   0.29000,
,,,0.067284000000,   0.29000,
,,,0.067286000000,   0.28800,
,,,0.067288000000,   0.28800,
,,,0.067290000000,   0.29000,
,,,0.067292000000,   0.29000,
,,,0.067294000000,   0.29000,
,,,0.067296000000,   0.28800,
,,,0.067298000000,   0.28800,
,,,0.067300000000,   0.28800,
,,,0.067302000000,   0.29000,
,,,0.067304000000,   0.29000,
,,,0.067306000000,   0.29000,
,,,0.067308000000,   0.29000,
,,,0.067310000000,   0.29000,
,,,0.067312000000,   0.29000,
,,,0.067314000000,   0.29000,
,,,0.067316000000,   0.29000,
,,,0.067318000000,   0.29000,
,,,0.067320000000,   0.29000,
,,,0.067322000000,   0.28800,
,,,0.067324000000,   0.28800,
,,,0.067326000000,   0.28800,
,,,0.067328000000,   0.28800,
,,,0.067330000000,   0.28800,
,,,0.067332000000,   0.28800,
,,,0.067334000000,   0.29000,
,,,0.067336000000,   0.28800,
,,,0.067338000000,   0.28800,
,,,0.067340000000,   0.28800,
,,,0.067342000000,   0.28800,
,,,0.067344000000,   0.29000,
,,,0.067346000000,   0.28800,
,,,0.067348000000,   0.28800,
,,,0.067350000000,   0.29000,
,,,0.067352000000,   0.29000,
,,,0.067354000000,   0.29000,
,,,0.067356000000,   0.28800,
,,,0.067358000000,   0.29000,
,,,0.067360000000,   0.28800,
,,,0.067362000000,   0.28800,
,,,0.067364000000,   0.28800,
,,,0.067366000000,   0.28800,
,,,0.067368000000,   0.29000,
,,,0.067370000000,   0.29000,
,,,0.067372000000,   0.29000,
,,,0.067374000000,   0.29000,
,,,0.067376000000,   0.29000,
,,,0.067378000000,   0.29000,
,,,0.067380000000,   0.29000,
,,,0.067382000000,   0.28800,
,,,0.067384000000,   0.28800,
,,,0.067386000000,   0.29000,
,,,0.067388000000,   0.28800,
,,,0.067390000000,   0.28800,
,,,0.067392000000,   0.28800,
,,,0.067394000000,   0.28600,
,,,0.067396000000,   0.28800,
,,,0.067398000000,   0.29000,
,,,0.067400000000,   0.28800,
,,,0.067402000000,   0.28800,
,,,0.067404000000,   0.28800,
,,,0.067406000000,   0.29000,
,,,0.067408000000,   0.28800,
,,,0.067410000000,   0.28800,
,,,0.067412000000,   0.28800,
,,,0.067414000000,   0.29000,
,,,0.067416000000,   0.28800,
,,,0.067418000000,   0.28800,
,,,0.067420000000,   0.28800,
,,,0.067422000000,   0.29000,
,,,0.067424000000,   0.28800,
,,,0.067426000000,   0.29000,
,,,0.067428000000,   0.29000,
,,,0.067430000000,   0.29000,
,,,0.067432000000,   0.29000,
,,,0.067434000000,   0.29000,
,,,0.067436000000,   0.29000,
,,,0.067438000000,   0.29000,
,,,0.067440000000,   0.29000,
,,,0.067442000000,   0.28800,
,,,0.067444000000,   0.28800,
,,,0.067446000000,   0.28800,
,,,0.067448000000,   0.28800,
,,,0.067450000000,   0.28800,
,,,0.067452000000,   0.28800,
,,,0.067454000000,   0.28800,
,,,0.067456000000,   0.28800,
,,,0.067458000000,   0.28800,
,,,0.067460000000,   0.28800,
,,,0.067462000000,   0.28800,
,,,0.067464000000,   0.28800,
,,,0.067466000000,   0.28800,
,,,0.067468000000,   0.28800,
,,,0.067470000000,   0.28800,
,,,0.067472000000,   0.28600,
,,,0.067474000000,   0.28800,
,,,0.067476000000,   0.29000,
,,,0.067478000000,   0.28800,
,,,0.067480000000,   0.29000,
,,,0.067482000000,   0.28800,
,,,0.067484000000,   0.28800,
,,,0.067486000000,   0.29000,
,,,0.067488000000,   0.28800,
,,,0.067490000000,   0.29000,
,,,0.067492000000,   0.29000,
,,,0.067494000000,   0.28800,
,,,0.067496000000,   0.28800,
,,,0.067498000000,   0.28800,
,,,0.067500000000,   0.28800,
,,,0.067502000000,   0.28800,
,,,0.067504000000,   0.28800,
,,,0.067506000000,   0.28800,
,,,0.067508000000,   0.29000,
,,,0.067510000000,   0.28800,
,,,0.067512000000,   0.29000,
,,,0.067514000000,   0.29000,
,,,0.067516000000,   0.28800,
,,,0.067518000000,   0.28800,
,,,0.067520000000,   0.28800,
,,,0.067522000000,   0.28800,
,,,0.067524000000,   0.28800,
,,,0.067526000000,   0.28800,
,,,0.067528000000,   0.28800,
,,,0.067530000000,   0.28800,
,,,0.067532000000,   0.28800,
,,,0.067534000000,   0.28800,
,,,0.067536000000,   0.28800,
,,,0.067538000000,   0.28800,
,,,0.067540000000,   0.28800,
,,,0.067542000000,   0.28800,
,,,0.067544000000,   0.29000,
,,,0.067546000000,   0.29000,
,,,0.067548000000,   0.29000,
,,,0.067550000000,   0.28800,
,,,0.067552000000,   0.29000,
,,,0.067554000000,   0.29000,
,,,0.067556000000,   0.29000,
,,,0.067558000000,   0.28800,
,,,0.067560000000,   0.28800,
,,,0.067562000000,   0.28800,
,,,0.067564000000,   0.29000,
,,,0.067566000000,   0.29000,
,,,0.067568000000,   0.28800,
,,,0.067570000000,   0.28800,
,,,0.067572000000,   0.28800,
,,,0.067574000000,   0.28800,
,,,0.067576000000,   0.28800,
,,,0.067578000000,   0.28800,
,,,0.067580000000,   0.28800,
,,,0.067582000000,   0.28800,
,,,0.067584000000,   0.28800,
,,,0.067586000000,   0.28800,
,,,0.067588000000,   0.28800,
,,,0.067590000000,   0.28800,
,,,0.067592000000,   0.29000,
,,,0.067594000000,   0.28800,
,,,0.067596000000,   0.29000,
,,,0.067598000000,   0.29000,
,,,0.067600000000,   0.28800,
,,,0.067602000000,   0.28800,
,,,0.067604000000,   0.28800,
,,,0.067606000000,   0.28800,
,,,0.067608000000,   0.28800,
,,,0.067610000000,   0.28800,
,,,0.067612000000,   0.28800,
,,,0.067614000000,   0.28800,
,,,0.067616000000,   0.28800,
,,,0.067618000000,   0.28800,
,,,0.067620000000,   0.29000,
,,,0.067622000000,   0.29000,
,,,0.067624000000,   0.28800,
,,,0.067626000000,   0.28800,
,,,0.067628000000,   0.29000,
,,,0.067630000000,   0.29000,
,,,0.067632000000,   0.28800,
,,,0.067634000000,   0.28800,
,,,0.067636000000,   0.28800,
,,,0.067638000000,   0.28800,
,,,0.067640000000,   0.28800,
,,,0.067642000000,   0.29000,
,,,0.067644000000,   0.28600,
,,,0.067646000000,   0.28800,
,,,0.067648000000,   0.28800,
,,,0.067650000000,   0.28800,
,,,0.067652000000,   0.28800,
,,,0.067654000000,   0.29000,
,,,0.067656000000,   0.28800,
,,,0.067658000000,   0.28800,
,,,0.067660000000,   0.28600,
,,,0.067662000000,   0.28800,
,,,0.067664000000,   0.28800,
,,,0.067666000000,   0.28800,
,,,0.067668000000,   0.28800,
,,,0.067670000000,   0.28800,
,,,0.067672000000,   0.28800,
,,,0.067674000000,   0.28800,
,,,0.067676000000,   0.29000,
,,,0.067678000000,   0.28800,
,,,0.067680000000,   0.28800,
,,,0.067682000000,   0.28800,
,,,0.067684000000,   0.29000,
,,,0.067686000000,   0.29000,
,,,0.067688000000,   0.29000,
,,,0.067690000000,   0.29200,
,,,0.067692000000,   0.29000,
,,,0.067694000000,   0.28800,
,,,0.067696000000,   0.29000,
,,,0.067698000000,   0.29000,
,,,0.067700000000,   0.29000,
,,,0.067702000000,   0.29000,
,,,0.067704000000,   0.29000,
,,,0.067706000000,   0.29000,
,,,0.067708000000,   0.29000,
,,,0.067710000000,   0.28800,
,,,0.067712000000,   0.29000,
,,,0.067714000000,   0.28800,
,,,0.067716000000,   0.28800,
,,,0.067718000000,   0.29000,
,,,0.067720000000,   0.29000,
,,,0.067722000000,   0.29000,
,,,0.067724000000,   0.28800,
,,,0.067726000000,   0.28800,
,,,0.067728000000,   0.28800,
,,,0.067730000000,   0.28800,
,,,0.067732000000,   0.28600,
,,,0.067734000000,   0.28800,
,,,0.067736000000,   0.28800,
,,,0.067738000000,   0.28800,
,,,0.067740000000,   0.28600,
,,,0.067742000000,   0.28800,
,,,0.067744000000,   0.28800,
,,,0.067746000000,   0.29000,
,,,0.067748000000,   0.29000,
,,,0.067750000000,   0.29000,
,,,0.067752000000,   0.28800,
,,,0.067754000000,   0.28800,
,,,0.067756000000,   0.28800,
,,,0.067758000000,   0.28800,
,,,0.067760000000,   0.28800,
,,,0.067762000000,   0.28800,
,,,0.067764000000,   0.28800,
,,,0.067766000000,   0.28800,
,,,0.067768000000,   0.28800,
,,,0.067770000000,   0.28800,
,,,0.067772000000,   0.28800,
,,,0.067774000000,   0.28800,
,,,0.067776000000,   0.28800,
,,,0.067778000000,   0.29000,
,,,0.067780000000,   0.29000,
,,,0.067782000000,   0.29000,
,,,0.067784000000,   0.29000,
,,,0.067786000000,   0.29000,
,,,0.067788000000,   0.28800,
,,,0.067790000000,   0.28800,
,,,0.067792000000,   0.28800,
,,,0.067794000000,   0.28800,
,,,0.067796000000,   0.28800,
,,,0.067798000000,   0.28800,
,,,0.067800000000,   0.28800,
,,,0.067802000000,   0.28800,
,,,0.067804000000,   0.28800,
,,,0.067806000000,   0.28800,
,,,0.067808000000,   0.28800,
,,,0.067810000000,   0.28800,
,,,0.067812000000,   0.28800,
,,,0.067814000000,   0.28800,
,,,0.067816000000,   0.29000,
,,,0.067818000000,   0.28800,
,,,0.067820000000,   0.28800,
,,,0.067822000000,   0.28800,
,,,0.067824000000,   0.29000,
,,,0.067826000000,   0.28800,
,,,0.067828000000,   0.29000,
,,,0.067830000000,   0.28800,
,,,0.067832000000,   0.29000,
,,,0.067834000000,   0.29000,
,,,0.067836000000,   0.29000,
,,,0.067838000000,   0.28800,
,,,0.067840000000,   0.29000,
,,,0.067842000000,   0.28800,
,,,0.067844000000,   0.28800,
,,,0.067846000000,   0.28800,
,,,0.067848000000,   0.28800,
,,,0.067850000000,   0.28800,
,,,0.067852000000,   0.29000,
,,,0.067854000000,   0.28800,
,,,0.067856000000,   0.29000,
,,,0.067858000000,   0.29000,
,,,0.067860000000,   0.28800,
,,,0.067862000000,   0.28800,
,,,0.067864000000,   0.28800,
,,,0.067866000000,   0.29000,
,,,0.067868000000,   0.28800,
,,,0.067870000000,   0.29000,
,,,0.067872000000,   0.28800,
,,,0.067874000000,   0.28800,
,,,0.067876000000,   0.28800,
,,,0.067878000000,   0.28800,
,,,0.067880000000,   0.28800,
,,,0.067882000000,   0.28800,
,,,0.067884000000,   0.28800,
,,,0.067886000000,   0.28800,
