pnmr/SS-relaxation-mineral-water/Method-1/ALL0049/F0049CH1.CSV

Record Length,2.500000e+03,,   0.021400000000,   0.28000,
Sample Interval,4.000000e-06,,   0.021404000000,   0.26000,
Trigger Point,-5.350000000000e+03,,   0.021408000000,   0.28000,
,,,   0.021412000000,   0.26000,
,,,   0.021416000000,   0.26000,
,,,   0.021420000000,   0.28000,
Source,CH1,,   0.021424000000,   0.26000,
Vertical Units,V,,   0.021428000000,   0.26000,
Vertical Scale,5.000000e-01,,   0.021432000000,   0.26000,
Vertical Offset,-1.820000e+00,,   0.021436000000,   0.26000,
Horizontal Units,s,,   0.021440000000,   0.26000,
Horizontal Scale,1.000000e-03,,   0.021444000000,   0.28000,
Pt Fmt,Y,,   0.021448000000,   0.28000,
Yzero,0.000000e+00,,   0.021452000000,   0.28000,
Probe Atten,1.000000e+00,,   0.021456000000,   0.26000,
Model Number,TBS1052B,,   0.021460000000,   0.28000,
Serial Number,C018313,,   0.021464000000,   0.26000,
Firmware Version,FV:v4.06,,   0.021468000000,   0.26000,
,,,0.021472000000,   0.26000,
,,,0.021476000000,   0.28000,
,,,0.021480000000,   0.26000,
,,,0.021484000000,   0.26000,
,,,0.021488000000,   0.26000,
,,,0.021492000000,   0.28000,
,,,0.021496000000,   0.28000,
,,,0.021500000000,   0.26000,
,,,0.021504000000,   0.28000,
,,,0.021508000000,   0.26000,
,,,0.021512000000,   0.28000,
,,,0.021516000000,   0.26000,
,,,0.021520000000,   0.26000,
,,,0.021524000000,   0.28000,
,,,0.021528000000,   0.28000,
,,,0.021532000000,   0.28000,
,,,0.021536000000,   0.28000,
,,,0.021540000000,   0.26000,
,,,0.021544000000,   0.28000,
,,,0.021548000000,   0.26000,
,,,0.021552000000,   0.26000,
,,,0.021556000000,   0.28000,
,,,0.021560000000,   0.28000,
,,,0.021564000000,   0.28000,
,,,0.021568000000,   0.26000,
,,,0.021572000000,   0.28000,
,,,0.021576000000,   0.28000,
,,,0.021580000000,   0.28000,
,,,0.021584000000,   0.26000,
,,,0.021588000000,   0.26000,
,,,0.021592000000,   0.26000,
,,,0.021596000000,   0.26000,
,,,0.021600000000,   0.26000,
,,,0.021604000000,   0.28000,
,,,0.021608000000,   0.26000,
,,,0.021612000000,   0.26000,
,,,0.021616000000,   0.28000,
,,,0.021620000000,   0.28000,
,,,0.021624000000,   0.28000,
,,,0.021628000000,   0.28000,
,,,0.021632000000,   0.26000,
,,,0.021636000000,   0.26000,
,,,0.021640000000,   0.26000,
,,,0.021644000000,   0.26000,
,,,0.021648000000,   0.26000,
,,,0.021652000000,   0.28000,
,,,0.021656000000,   0.26000,
,,,0.021660000000,   0.26000,
,,,0.021664000000,   0.26000,
,,,0.021668000000,   0.26000,
,,,0.021672000000,   0.28000,
,,,0.021676000000,   0.28000,
,,,0.021680000000,   0.26000,
,,,0.021684000000,   0.28000,
,,,0.021688000000,   0.28000,
,,,0.021692000000,   0.28000,
,,,0.021696000000,   0.28000,
,,,0.021700000000,   0.28000,
,,,0.021704000000,   0.28000,
,,,0.021708000000,   0.28000,
,,,0.021712000000,   0.28000,
,,,0.021716000000,   0.26000,
,,,0.021720000000,   0.28000,
,,,0.021724000000,   0.26000,
,,,0.021728000000,   0.28000,
,,,0.021732000000,   0.28000,
,,,0.021736000000,   0.28000,
,,,0.021740000000,   0.28000,
,,,0.021744000000,   0.28000,
,,,0.021748000000,   0.28000,
,,,0.021752000000,   0.28000,
,,,0.021756000000,   0.28000,
,,,0.021760000000,   0.26000,
,,,0.021764000000,   0.28000,
,,,0.021768000000,   0.28000,
,,,0.021772000000,   0.26000,
,,,0.021776000000,   0.28000,
,,,0.021780000000,   0.28000,
,,,0.021784000000,   0.30000,
,,,0.021788000000,   0.30000,
,,,0.021792000000,   0.28000,
,,,0.021796000000,   0.28000,
,,,0.021800000000,   0.30000,
,,,0.021804000000,   0.30000,
,,,0.021808000000,   0.30000,
,,,0.021812000000,   0.30000,
,,,0.021816000000,   0.32000,
,,,0.021820000000,   0.32000,
,,,0.021824000000,   0.32000,
,,,0.021828000000,   0.30000,
,,,0.021832000000,   0.30000,
,,,0.021836000000,   0.32000,
,,,0.021840000000,   0.32000,
,,,0.021844000000,   0.32000,
,,,0.021848000000,   0.32000,
,,,0.021852000000,   0.30000,
,,,0.021856000000,   0.32000,
,,,0.021860000000,   0.32000,
,,,0.021864000000,   0.32000,
,,,0.021868000000,   0.32000,
,,,0.021872000000,   0.30000,
,,,0.021876000000,   0.32000,
,,,0.021880000000,   0.34000,
,,,0.021884000000,   0.36000,
,,,0.021888000000,   0.36000,
,,,0.021892000000,   0.38000,
,,,0.021896000000,   0.40000,
,,,0.021900000000,   0.40000,
,,,0.021904000000,   0.40000,
,,,0.021908000000,   0.44000,
,,,0.021912000000,   0.46000,
,,,0.021916000000,   0.48000,
,,,0.021920000000,   0.52000,
,,,0.021924000000,   0.56000,
,,,0.021928000000,   0.58000,
,,,0.021932000000,   0.62000,
,,,0.021936000000,   0.66000,
,,,0.021940000000,   0.68000,
,,,0.021944000000,   0.74000,
,,,0.021948000000,   0.78000,
,,,0.021952000000,   0.80000,
,,,0.021956000000,   0.84000,
,,,0.021960000000,   0.86000,
,,,0.021964000000,   0.88000,
,,,0.021968000000,   0.94000,
,,,0.021972000000,   0.98000,
,,,0.021976000000,   1.02000,
,,,0.021980000000,   1.02000,
,,,0.021984000000,   1.06000,
,,,0.021988000000,   1.08000,
,,,0.021992000000,   1.10000,
,,,0.021996000000,   1.10000,
,,,0.022000000000,   1.12000,
,,,0.022004000000,   1.14000,
,,,0.022008000000,   1.14000,
,,,0.022012000000,   1.16000,
,,,0.022016000000,   1.18000,
,,,0.022020000000,   1.18000,
,,,0.022024000000,   1.18000,
,,,0.022028000000,   1.16000,
,,,0.022032000000,   1.14000,
,,,0.022036000000,   1.14000,
,,,0.022040000000,   1.12000,
,,,0.022044000000,   1.12000,
,,,0.022048000000,   1.12000,
,,,0.022052000000,   1.12000,
,,,0.022056000000,   1.10000,
,,,0.022060000000,   1.06000,
,,,0.022064000000,   1.04000,
,,,0.022068000000,   1.02000,
,,,0.022072000000,   1.02000,
,,,0.022076000000,   0.96000,
,,,0.022080000000,   0.92000,
,,,0.022084000000,   0.90000,
,,,0.022088000000,   0.86000,
,,,0.022092000000,   0.84000,
,,,0.022096000000,   0.80000,
,,,0.022100000000,   0.76000,
,,,0.022104000000,   0.72000,
,,,0.022108000000,   0.68000,
,,,0.022112000000,   0.62000,
,,,0.022116000000,   0.60000,
,,,0.022120000000,   0.56000,
,,,0.022124000000,   0.54000,
,,,0.022128000000,   0.52000,
,,,0.022132000000,   0.50000,
,,,0.022136000000,   0.48000,
,,,0.022140000000,   0.46000,
,,,0.022144000000,   0.44000,
,,,0.022148000000,   0.44000,
,,,0.022152000000,   0.40000,
,,,0.022156000000,   0.38000,
,,,0.022160000000,   0.36000,
,,,0.022164000000,   0.36000,
,,,0.022168000000,   0.36000,
,,,0.022172000000,   0.34000,
,,,0.022176000000,   0.34000,
,,,0.022180000000,   0.34000,
,,,0.022184000000,   0.30000,
,,,0.022188000000,   0.32000,
,,,0.022192000000,   0.32000,
,,,0.022196000000,   0.30000,
,,,0.022200000000,   0.30000,
,,,0.022204000000,   0.30000,
,,,0.022208000000,   0.30000,
,,,0.022212000000,   0.30000,
,,,0.022216000000,   0.32000,
,,,0.022220000000,   0.32000,
,,,0.022224000000,   0.32000,
,,,0.022228000000,   0.30000,
,,,0.022232000000,   0.32000,
,,,0.022236000000,   0.30000,
,,,0.022240000000,   0.30000,
,,,0.022244000000,   0.30000,
,,,0.022248000000,   0.30000,
,,,0.022252000000,   0.30000,
,,,0.022256000000,   0.30000,
,,,0.022260000000,   0.28000,
,,,0.022264000000,   0.30000,
,,,0.022268000000,   0.28000,
,,,0.022272000000,   0.30000,
,,,0.022276000000,   0.30000,
,,,0.022280000000,   0.28000,
,,,0.022284000000,   0.28000,
,,,0.022288000000,   0.28000,
,,,0.022292000000,   0.28000,
,,,0.022296000000,   0.30000,
,,,0.022300000000,   0.28000,
,,,0.022304000000,   0.30000,
,,,0.022308000000,   0.30000,
,,,0.022312000000,   0.28000,
,,,0.022316000000,   0.28000,
,,,0.022320000000,   0.28000,
,,,0.022324000000,   0.28000,
,,,0.022328000000,   0.28000,
,,,0.022332000000,   0.28000,
,,,0.022336000000,   0.26000,
,,,0.022340000000,   0.28000,
,,,0.022344000000,   0.28000,
,,,0.022348000000,   0.28000,
,,,0.022352000000,   0.28000,
,,,0.022356000000,   0.28000,
,,,0.022360000000,   0.28000,
,,,0.022364000000,   0.28000,
,,,0.022368000000,   0.28000,
,,,0.022372000000,   0.28000,
,,,0.022376000000,   0.28000,
,,,0.022380000000,   0.28000,
,,,0.022384000000,   0.28000,
,,,0.022388000000,   0.28000,
,,,0.022392000000,   0.28000,
,,,0.022396000000,   0.28000,
,,,0.022400000000,   0.28000,
,,,0.022404000000,   0.28000,
,,,0.022408000000,   0.28000,
,,,0.022412000000,   0.28000,
,,,0.022416000000,   0.26000,
,,,0.022420000000,   0.28000,
,,,0.022424000000,   0.28000,
,,,0.022428000000,   0.26000,
,,,0.022432000000,   0.28000,
,,,0.022436000000,   0.26000,
,,,0.022440000000,   0.28000,
,,,0.022444000000,   0.26000,
,,,0.022448000000,   0.28000,
,,,0.022452000000,   0.26000,
,,,0.022456000000,   0.26000,
,,,0.022460000000,   0.28000,
,,,0.022464000000,   0.26000,
,,,0.022468000000,   0.28000,
,,,0.022472000000,   0.26000,
,,,0.022476000000,   0.26000,
,,,0.022480000000,   0.30000,
,,,0.022484000000,   0.26000,
,,,0.022488000000,   0.26000,
,,,0.022492000000,   0.26000,
,,,0.022496000000,   0.26000,
,,,0.022500000000,   0.26000,
,,,0.022504000000,   0.26000,
,,,0.022508000000,   0.26000,
,,,0.022512000000,   0.26000,
,,,0.022516000000,   0.28000,
,,,0.022520000000,   0.28000,
,,,0.022524000000,   0.28000,
,,,0.022528000000,   0.26000,
,,,0.022532000000,   0.26000,
,,,0.022536000000,   0.28000,
,,,0.022540000000,   0.28000,
,,,0.022544000000,   0.28000,
,,,0.022548000000,   0.28000,
,,,0.022552000000,   0.26000,
,,,0.022556000000,   0.26000,
,,,0.022560000000,   0.28000,
,,,0.022564000000,   0.28000,
,,,0.022568000000,   0.28000,
,,,0.022572000000,   0.26000,
,,,0.022576000000,   0.28000,
,,,0.022580000000,   0.26000,
,,,0.022584000000,   0.28000,
,,,0.022588000000,   0.26000,
,,,0.022592000000,   0.28000,
,,,0.022596000000,   0.26000,
,,,0.022600000000,   0.28000,
,,,0.022604000000,   0.26000,
,,,0.022608000000,   0.28000,
,,,0.022612000000,   0.26000,
,,,0.022616000000,   0.28000,
,,,0.022620000000,   0.26000,
,,,0.022624000000,   0.26000,
,,,0.022628000000,   0.28000,
,,,0.022632000000,   0.26000,
,,,0.022636000000,   0.26000,
,,,0.022640000000,   0.28000,
,,,0.022644000000,   0.28000,
,,,0.022648000000,   0.26000,
,,,0.022652000000,   0.28000,
,,,0.022656000000,   0.26000,
,,,0.022660000000,   0.28000,
,,,0.022664000000,   0.28000,
,,,0.022668000000,   0.26000,
,,,0.022672000000,   0.28000,
,,,0.022676000000,   0.28000,
,,,0.022680000000,   0.28000,
,,,0.022684000000,   0.28000,
,,,0.022688000000,   0.26000,
,,,0.022692000000,   0.28000,
,,,0.022696000000,   0.28000,
,,,0.022700000000,   0.28000,
,,,0.022704000000,   0.28000,
,,,0.022708000000,   0.26000,
,,,0.022712000000,   0.28000,
,,,0.022716000000,   0.28000,
,,,0.022720000000,   0.28000,
,,,0.022724000000,   0.26000,
,,,0.022728000000,   0.26000,
,,,0.022732000000,   0.28000,
,,,0.022736000000,   0.26000,
,,,0.022740000000,   0.28000,
,,,0.022744000000,   0.26000,
,,,0.022748000000,   0.26000,
,,,0.022752000000,   0.26000,
,,,0.022756000000,   0.28000,
,,,0.022760000000,   0.28000,
,,,0.022764000000,   0.28000,
,,,0.022768000000,   0.28000,
,,,0.022772000000,   0.28000,
,,,0.022776000000,   0.28000,
,,,0.022780000000,   0.28000,
,,,0.022784000000,   0.26000,
,,,0.022788000000,   0.26000,
,,,0.022792000000,   0.28000,
,,,0.022796000000,   0.28000,
,,,0.022800000000,   0.26000,
,,,0.022804000000,   0.28000,
,,,0.022808000000,   0.26000,
,,,0.022812000000,   0.28000,
,,,0.022816000000,   0.26000,
,,,0.022820000000,   0.28000,
,,,0.022824000000,   0.26000,
,,,0.022828000000,   0.28000,
,,,0.022832000000,   0.26000,
,,,0.022836000000,   0.26000,
,,,0.022840000000,   0.28000,
,,,0.022844000000,   0.26000,
,,,0.022848000000,   0.28000,
,,,0.022852000000,   0.26000,
,,,0.022856000000,   0.26000,
,,,0.022860000000,   0.26000,
,,,0.022864000000,   0.26000,
,,,0.022868000000,   0.26000,
,,,0.022872000000,   0.26000,
,,,0.022876000000,   0.26000,
,,,0.022880000000,   0.28000,
,,,0.022884000000,   0.26000,
,,,0.022888000000,   0.28000,
,,,0.022892000000,   0.26000,
,,,0.022896000000,   0.26000,
,,,0.022900000000,   0.26000,
,,,0.022904000000,   0.28000,
,,,0.022908000000,   0.28000,
,,,0.022912000000,   0.26000,
,,,0.022916000000,   0.26000,
,,,0.022920000000,   0.26000,
,,,0.022924000000,   0.26000,
,,,0.022928000000,   0.28000,
,,,0.022932000000,   0.28000,
,,,0.022936000000,   0.28000,
,,,0.022940000000,   0.26000,
,,,0.022944000000,   0.26000,
,,,0.022948000000,   0.28000,
,,,0.022952000000,   0.28000,
,,,0.022956000000,   0.26000,
,,,0.022960000000,   0.26000,
,,,0.022964000000,   0.26000,
,,,0.022968000000,   0.26000,
,,,0.022972000000,   0.26000,
,,,0.022976000000,   0.26000,
,,,0.022980000000,   0.28000,
,,,0.022984000000,   0.28000,
,,,0.022988000000,   0.28000,
,,,0.022992000000,   0.28000,
,,,0.022996000000,   0.26000,
,,,0.023000000000,   0.26000,
,,,0.023004000000,   0.28000,
,,,0.023008000000,   0.26000,
,,,0.023012000000,   0.28000,
,,,0.023016000000,   0.28000,
,,,0.023020000000,   0.26000,
,,,0.023024000000,   0.28000,
,,,0.023028000000,   0.26000,
,,,0.023032000000,   0.28000,
,,,0.023036000000,   0.28000,
,,,0.023040000000,   0.26000,
,,,0.023044000000,   0.26000,
,,,0.023048000000,   0.28000,
,,,0.023052000000,   0.28000,
,,,0.023056000000,   0.26000,
,,,0.023060000000,   0.26000,
,,,0.023064000000,   0.28000,
,,,0.023068000000,   0.26000,
,,,0.023072000000,   0.28000,
,,,0.023076000000,   0.26000,
,,,0.023080000000,   0.28000,
,,,0.023084000000,   0.28000,
,,,0.023088000000,   0.28000,
,,,0.023092000000,   0.28000,
,,,0.023096000000,   0.28000,
,,,0.023100000000,   0.26000,
,,,0.023104000000,   0.26000,
,,,0.023108000000,   0.28000,
,,,0.023112000000,   0.28000,
,,,0.023116000000,   0.26000,
,,,0.023120000000,   0.28000,
,,,0.023124000000,   0.26000,
,,,0.023128000000,   0.26000,
,,,0.023132000000,   0.28000,
,,,0.023136000000,   0.28000,
,,,0.023140000000,   0.26000,
,,,0.023144000000,   0.28000,
,,,0.023148000000,   0.26000,
,,,0.023152000000,   0.26000,
,,,0.023156000000,   0.28000,
,,,0.023160000000,   0.28000,
,,,0.023164000000,   0.26000,
,,,0.023168000000,   0.26000,
,,,0.023172000000,   0.26000,
,,,0.023176000000,   0.28000,
,,,0.023180000000,   0.28000,
,,,0.023184000000,   0.28000,
,,,0.023188000000,   0.28000,
,,,0.023192000000,   0.28000,
,,,0.023196000000,   0.28000,
,,,0.023200000000,   0.26000,
,,,0.023204000000,   0.26000,
,,,0.023208000000,   0.28000,
,,,0.023212000000,   0.28000,
,,,0.023216000000,   0.28000,
,,,0.023220000000,   0.28000,
,,,0.023224000000,   0.28000,
,,,0.023228000000,   0.26000,
,,,0.023232000000,   0.28000,
,,,0.023236000000,   0.28000,
,,,0.023240000000,   0.26000,
,,,0.023244000000,   0.26000,
,,,0.023248000000,   0.28000,
,,,0.023252000000,   0.28000,
,,,0.023256000000,   0.28000,
,,,0.023260000000,   0.26000,
,,,0.023264000000,   0.28000,
,,,0.023268000000,   0.26000,
,,,0.023272000000,   0.28000,
,,,0.023276000000,   0.26000,
,,,0.023280000000,   0.26000,
,,,0.023284000000,   0.26000,
,,,0.023288000000,   0.28000,
,,,0.023292000000,   0.26000,
,,,0.023296000000,   0.26000,
,,,0.023300000000,   0.28000,
,,,0.023304000000,   0.28000,
,,,0.023308000000,   0.26000,
,,,0.023312000000,   0.28000,
,,,0.023316000000,   0.28000,
,,,0.023320000000,   0.26000,
,,,0.023324000000,   0.26000,
,,,0.023328000000,   0.26000,
,,,0.023332000000,   0.26000,
,,,0.023336000000,   0.28000,
,,,0.023340000000,   0.26000,
,,,0.023344000000,   0.26000,
,,,0.023348000000,   0.28000,
,,,0.023352000000,   0.26000,
,,,0.023356000000,   0.28000,
,,,0.023360000000,   0.26000,
,,,0.023364000000,   0.26000,
,,,0.023368000000,   0.28000,
,,,0.023372000000,   0.26000,
,,,0.023376000000,   0.26000,
,,,0.023380000000,   0.26000,
,,,0.023384000000,   0.28000,
,,,0.023388000000,   0.26000,
,,,0.023392000000,   0.28000,
,,,0.023396000000,   0.26000,
,,,0.023400000000,   0.26000,
,,,0.023404000000,   0.26000,
,,,0.023408000000,   0.26000,
,,,0.023412000000,   0.28000,
,,,0.023416000000,   0.26000,
,,,0.023420000000,   0.28000,
,,,0.023424000000,   0.28000,
,,,0.023428000000,   0.26000,
,,,0.023432000000,   0.28000,
,,,0.023436000000,   0.28000,
,,,0.023440000000,   0.28000,
,,,0.023444000000,   0.28000,
,,,0.023448000000,   0.26000,
,,,0.023452000000,   0.28000,
,,,0.023456000000,   0.26000,
,,,0.023460000000,   0.28000,
,,,0.023464000000,   0.26000,
,,,0.023468000000,   0.26000,
,,,0.023472000000,   0.28000,
,,,0.023476000000,   0.28000,
,,,0.023480000000,   0.28000,
,,,0.023484000000,   0.26000,
,,,0.023488000000,   0.26000,
,,,0.023492000000,   0.26000,
,,,0.023496000000,   0.28000,
,,,0.023500000000,   0.28000,
,,,0.023504000000,   0.26000,
,,,0.023508000000,   0.26000,
,,,0.023512000000,   0.26000,
,,,0.023516000000,   0.26000,
,,,0.023520000000,   0.26000,
,,,0.023524000000,   0.26000,
,,,0.023528000000,   0.26000,
,,,0.023532000000,   0.28000,
,,,0.023536000000,   0.28000,
,,,0.023540000000,   0.28000,
,,,0.023544000000,   0.28000,
,,,0.023548000000,   0.28000,
,,,0.023552000000,   0.28000,
,,,0.023556000000,   0.28000,
,,,0.023560000000,   0.26000,
,,,0.023564000000,   0.26000,
,,,0.023568000000,   0.28000,
,,,0.023572000000,   0.26000,
,,,0.023576000000,   0.28000,
,,,0.023580000000,   0.28000,
,,,0.023584000000,   0.28000,
,,,0.023588000000,   0.26000,
,,,0.023592000000,   0.28000,
,,,0.023596000000,   0.28000,
,,,0.023600000000,   0.28000,
,,,0.023604000000,   0.28000,
,,,0.023608000000,   0.26000,
,,,0.023612000000,   0.26000,
,,,0.023616000000,   0.28000,
,,,0.023620000000,   0.28000,
,,,0.023624000000,   0.26000,
,,,0.023628000000,   0.26000,
,,,0.023632000000,   0.28000,
,,,0.023636000000,   0.28000,
,,,0.023640000000,   0.28000,
,,,0.023644000000,   0.28000,
,,,0.023648000000,   0.26000,
,,,0.023652000000,   0.26000,
,,,0.023656000000,   0.28000,
,,,0.023660000000,   0.28000,
,,,0.023664000000,   0.28000,
,,,0.023668000000,   0.28000,
,,,0.023672000000,   0.26000,
,,,0.023676000000,   0.28000,
,,,0.023680000000,   0.28000,
,,,0.023684000000,   0.28000,
,,,0.023688000000,   0.28000,
,,,0.023692000000,   0.28000,
,,,0.023696000000,   0.28000,
,,,0.023700000000,   0.28000,
,,,0.023704000000,   0.28000,
,,,0.023708000000,   0.28000,
,,,0.023712000000,   0.26000,
,,,0.023716000000,   0.28000,
,,,0.023720000000,   0.28000,
,,,0.023724000000,   0.28000,
,,,0.023728000000,   0.26000,
,,,0.023732000000,   0.26000,
,,,0.023736000000,   0.28000,
,,,0.023740000000,   0.26000,
,,,0.023744000000,   0.28000,
,,,0.023748000000,   0.26000,
,,,0.023752000000,   0.28000,
,,,0.023756000000,   0.28000,
,,,0.023760000000,   0.28000,
,,,0.023764000000,   0.28000,
,,,0.023768000000,   0.26000,
,,,0.023772000000,   0.28000,
,,,0.023776000000,   0.28000,
,,,0.023780000000,   0.28000,
,,,0.023784000000,   0.26000,
,,,0.023788000000,   0.26000,
,,,0.023792000000,   0.28000,
,,,0.023796000000,   0.26000,
,,,0.023800000000,   0.28000,
,,,0.023804000000,   0.28000,
,,,0.023808000000,   0.28000,
,,,0.023812000000,   0.28000,
,,,0.023816000000,   0.26000,
,,,0.023820000000,   0.28000,
,,,0.023824000000,   0.26000,
,,,0.023828000000,   0.26000,
,,,0.023832000000,   0.28000,
,,,0.023836000000,   0.28000,
,,,0.023840000000,   0.28000,
,,,0.023844000000,   0.28000,
,,,0.023848000000,   0.28000,
,,,0.023852000000,   0.28000,
,,,0.023856000000,   0.28000,
,,,0.023860000000,   0.28000,
,,,0.023864000000,   0.26000,
,,,0.023868000000,   0.28000,
,,,0.023872000000,   0.28000,
,,,0.023876000000,   0.28000,
,,,0.023880000000,   0.28000,
,,,0.023884000000,   0.28000,
,,,0.023888000000,   0.28000,
,,,0.023892000000,   0.28000,
,,,0.023896000000,   0.26000,
,,,0.023900000000,   0.26000,
,,,0.023904000000,   0.26000,
,,,0.023908000000,   0.28000,
,,,0.023912000000,   0.28000,
,,,0.023916000000,   0.28000,
,,,0.023920000000,   0.28000,
,,,0.023924000000,   0.26000,
,,,0.023928000000,   0.28000,
,,,0.023932000000,   0.28000,
,,,0.023936000000,   0.28000,
,,,0.023940000000,   0.28000,
,,,0.023944000000,   0.28000,
,,,0.023948000000,   0.26000,
,,,0.023952000000,   0.28000,
,,,0.023956000000,   0.28000,
,,,0.023960000000,   0.26000,
,,,0.023964000000,   0.26000,
,,,0.023968000000,   0.28000,
,,,0.023972000000,   0.28000,
,,,0.023976000000,   0.28000,
,,,0.023980000000,   0.28000,
,,,0.023984000000,   0.26000,
,,,0.023988000000,   0.26000,
,,,0.023992000000,   0.26000,
,,,0.023996000000,   0.26000,
,,,0.024000000000,   0.26000,
,,,0.024004000000,   0.26000,
,,,0.024008000000,   0.28000,
,,,0.024012000000,   0.28000,
