pnmr/SS-relaxation-mineral-water/Method-1/ALL0033/F0033CH1.CSV

Record Length,2.500000e+03,,   0.005040000000,   0.26000,
Sample Interval,4.000000e-06,,   0.005044000000,   0.26000,
Trigger Point,-1.260000000000e+03,,   0.005048000000,   0.26000,
,,,   0.005052000000,   0.26000,
,,,   0.005056000000,   0.26000,
,,,   0.005060000000,   0.26000,
Source,CH1,,   0.005064000000,   0.24000,
Vertical Units,V,,   0.005068000000,   0.26000,
Vertical Scale,5.000000e-01,,   0.005072000000,   0.26000,
Vertical Offset,-1.780000e+00,,   0.005076000000,   0.26000,
Horizontal Units,s,,   0.005080000000,   0.26000,
Horizontal Scale,1.000000e-03,,   0.005084000000,   0.26000,
Pt Fmt,Y,,   0.005088000000,   0.26000,
Yzero,0.000000e+00,,   0.005092000000,   0.26000,
Probe Atten,1.000000e+00,,   0.005096000000,   0.26000,
Model Number,TBS1052B,,   0.005100000000,   0.26000,
Serial Number,C018313,,   0.005104000000,   0.26000,
Firmware Version,FV:v4.06,,   0.005108000000,   0.26000,
,,,0.005112000000,   0.26000,
,,,0.005116000000,   0.26000,
,,,0.005120000000,   0.26000,
,,,0.005124000000,   0.26000,
,,,0.005128000000,   0.24000,
,,,0.005132000000,   0.26000,
,,,0.005136000000,   0.26000,
,,,0.005140000000,   0.26000,
,,,0.005144000000,   0.26000,
,,,0.005148000000,   0.26000,
,,,0.005152000000,   0.26000,
,,,0.005156000000,   0.26000,
,,,0.005160000000,   0.26000,
,,,0.005164000000,   0.26000,
,,,0.005168000000,   0.26000,
,,,0.005172000000,   0.26000,
,,,0.005176000000,   0.26000,
,,,0.005180000000,   0.26000,
,,,0.005184000000,   0.26000,
,,,0.005188000000,   0.26000,
,,,0.005192000000,   0.26000,
,,,0.005196000000,   0.26000,
,,,0.005200000000,   0.26000,
,,,0.005204000000,   0.26000,
,,,0.005208000000,   0.26000,
,,,0.005212000000,   0.26000,
,,,0.005216000000,   0.26000,
,,,0.005220000000,   0.26000,
,,,0.005224000000,   0.26000,
,,,0.005228000000,   0.26000,
,,,0.005232000000,   0.26000,
,,,0.005236000000,   0.26000,
,,,0.005240000000,   0.26000,
,,,0.005244000000,   0.26000,
,,,0.005248000000,   0.26000,
,,,0.005252000000,   0.26000,
,,,0.005256000000,   0.26000,
,,,0.005260000000,   0.26000,
,,,0.005264000000,   0.26000,
,,,0.005268000000,   0.26000,
,,,0.005272000000,   0.26000,
,,,0.005276000000,   0.26000,
,,,0.005280000000,   0.26000,
,,,0.005284000000,   0.26000,
,,,0.005288000000,   0.28000,
,,,0.005292000000,   0.26000,
,,,0.005296000000,   0.26000,
,,,0.005300000000,   0.26000,
,,,0.005304000000,   0.26000,
,,,0.005308000000,   0.28000,
,,,0.005312000000,   0.26000,
,,,0.005316000000,   0.26000,
,,,0.005320000000,   0.28000,
,,,0.005324000000,   0.26000,
,,,0.005328000000,   0.26000,
,,,0.005332000000,   0.26000,
,,,0.005336000000,   0.26000,
,,,0.005340000000,   0.26000,
,,,0.005344000000,   0.26000,
,,,0.005348000000,   0.26000,
,,,0.005352000000,   0.26000,
,,,0.005356000000,   0.26000,
,,,0.005360000000,   0.26000,
,,,0.005364000000,   0.24000,
,,,0.005368000000,   0.26000,
,,,0.005372000000,   0.28000,
,,,0.005376000000,   0.26000,
,,,0.005380000000,   0.26000,
,,,0.005384000000,   0.26000,
,,,0.005388000000,   0.26000,
,,,0.005392000000,   0.26000,
,,,0.005396000000,   0.26000,
,,,0.005400000000,   0.26000,
,,,0.005404000000,   0.26000,
,,,0.005408000000,   0.26000,
,,,0.005412000000,   0.26000,
,,,0.005416000000,   0.26000,
,,,0.005420000000,   0.26000,
,,,0.005424000000,   0.26000,
,,,0.005428000000,   0.24000,
,,,0.005432000000,   0.26000,
,,,0.005436000000,   0.26000,
,,,0.005440000000,   0.26000,
,,,0.005444000000,   0.26000,
,,,0.005448000000,   0.26000,
,,,0.005452000000,   0.26000,
,,,0.005456000000,   0.26000,
,,,0.005460000000,   0.26000,
,,,0.005464000000,   0.26000,
,,,0.005468000000,   0.26000,
,,,0.005472000000,   0.26000,
,,,0.005476000000,   0.26000,
,,,0.005480000000,   0.26000,
,,,0.005484000000,   0.26000,
,,,0.005488000000,   0.26000,
,,,0.005492000000,   0.26000,
,,,0.005496000000,   0.26000,
,,,0.005500000000,   0.26000,
,,,0.005504000000,   0.26000,
,,,0.005508000000,   0.26000,
,,,0.005512000000,   0.26000,
,,,0.005516000000,   0.26000,
,,,0.005520000000,   0.26000,
,,,0.005524000000,   0.26000,
,,,0.005528000000,   0.24000,
,,,0.005532000000,   0.26000,
,,,0.005536000000,   0.26000,
,,,0.005540000000,   0.24000,
,,,0.005544000000,   0.26000,
,,,0.005548000000,   0.26000,
,,,0.005552000000,   0.28000,
,,,0.005556000000,   0.26000,
,,,0.005560000000,   0.26000,
,,,0.005564000000,   0.26000,
,,,0.005568000000,   0.24000,
,,,0.005572000000,   0.26000,
,,,0.005576000000,   0.28000,
,,,0.005580000000,   0.26000,
,,,0.005584000000,   0.26000,
,,,0.005588000000,   0.26000,
,,,0.005592000000,   0.26000,
,,,0.005596000000,   0.26000,
,,,0.005600000000,   0.26000,
,,,0.005604000000,   0.26000,
,,,0.005608000000,   0.26000,
,,,0.005612000000,   0.26000,
,,,0.005616000000,   0.26000,
,,,0.005620000000,   0.26000,
,,,0.005624000000,   0.24000,
,,,0.005628000000,   0.26000,
,,,0.005632000000,   0.26000,
,,,0.005636000000,   0.26000,
,,,0.005640000000,   0.26000,
,,,0.005644000000,   0.26000,
,,,0.005648000000,   0.26000,
,,,0.005652000000,   0.26000,
,,,0.005656000000,   0.26000,
,,,0.005660000000,   0.26000,
,,,0.005664000000,   0.26000,
,,,0.005668000000,   0.26000,
,,,0.005672000000,   0.28000,
,,,0.005676000000,   0.26000,
,,,0.005680000000,   0.26000,
,,,0.005684000000,   0.26000,
,,,0.005688000000,   0.26000,
,,,0.005692000000,   0.26000,
,,,0.005696000000,   0.26000,
,,,0.005700000000,   0.28000,
,,,0.005704000000,   0.28000,
,,,0.005708000000,   0.26000,
,,,0.005712000000,   0.26000,
,,,0.005716000000,   0.26000,
,,,0.005720000000,   0.26000,
,,,0.005724000000,   0.26000,
,,,0.005728000000,   0.26000,
,,,0.005732000000,   0.26000,
,,,0.005736000000,   0.26000,
,,,0.005740000000,   0.28000,
,,,0.005744000000,   0.26000,
,,,0.005748000000,   0.26000,
,,,0.005752000000,   0.26000,
,,,0.005756000000,   0.26000,
,,,0.005760000000,   0.26000,
,,,0.005764000000,   0.26000,
,,,0.005768000000,   0.26000,
,,,0.005772000000,   0.26000,
,,,0.005776000000,   0.26000,
,,,0.005780000000,   0.26000,
,,,0.005784000000,   0.28000,
,,,0.005788000000,   0.26000,
,,,0.005792000000,   0.26000,
,,,0.005796000000,   0.26000,
,,,0.005800000000,   0.26000,
,,,0.005804000000,   0.26000,
,,,0.005808000000,   0.26000,
,,,0.005812000000,   0.28000,
,,,0.005816000000,   0.26000,
,,,0.005820000000,   0.24000,
,,,0.005824000000,   0.26000,
,,,0.005828000000,   0.26000,
,,,0.005832000000,   0.26000,
,,,0.005836000000,   0.26000,
,,,0.005840000000,   0.26000,
,,,0.005844000000,   0.26000,
,,,0.005848000000,   0.28000,
,,,0.005852000000,   0.26000,
,,,0.005856000000,   0.26000,
,,,0.005860000000,   0.26000,
,,,0.005864000000,   0.28000,
,,,0.005868000000,   0.26000,
,,,0.005872000000,   0.26000,
,,,0.005876000000,   0.26000,
,,,0.005880000000,   0.28000,
,,,0.005884000000,   0.26000,
,,,0.005888000000,   0.26000,
,,,0.005892000000,   0.26000,
,,,0.005896000000,   0.26000,
,,,0.005900000000,   0.26000,
,,,0.005904000000,   0.26000,
,,,0.005908000000,   0.26000,
,,,0.005912000000,   0.26000,
,,,0.005916000000,   0.24000,
,,,0.005920000000,   0.26000,
,,,0.005924000000,   0.26000,
,,,0.005928000000,   0.26000,
,,,0.005932000000,   0.26000,
,,,0.005936000000,   0.26000,
,,,0.005940000000,   0.26000,
,,,0.005944000000,   0.26000,
,,,0.005948000000,   0.26000,
,,,0.005952000000,   0.26000,
,,,0.005956000000,   0.26000,
,,,0.005960000000,   0.26000,
,,,0.005964000000,   0.26000,
,,,0.005968000000,   0.26000,
,,,0.005972000000,   0.28000,
,,,0.005976000000,   0.26000,
,,,0.005980000000,   0.26000,
,,,0.005984000000,   0.26000,
,,,0.005988000000,   0.26000,
,,,0.005992000000,   0.26000,
,,,0.005996000000,   0.28000,
,,,0.006000000000,   0.26000,
,,,0.006004000000,   0.26000,
,,,0.006008000000,   0.26000,
,,,0.006012000000,   0.26000,
,,,0.006016000000,   0.26000,
,,,0.006020000000,   0.26000,
,,,0.006024000000,   0.26000,
,,,0.006028000000,   0.26000,
,,,0.006032000000,   0.26000,
,,,0.006036000000,   0.26000,
,,,0.006040000000,   0.26000,
,,,0.006044000000,   0.26000,
,,,0.006048000000,   0.26000,
,,,0.006052000000,   0.26000,
,,,0.006056000000,   0.26000,
,,,0.006060000000,   0.26000,
,,,0.006064000000,   0.26000,
,,,0.006068000000,   0.26000,
,,,0.006072000000,   0.26000,
,,,0.006076000000,   0.26000,
,,,0.006080000000,   0.26000,
,,,0.006084000000,   0.28000,
,,,0.006088000000,   0.26000,
,,,0.006092000000,   0.28000,
,,,0.006096000000,   0.26000,
,,,0.006100000000,   0.26000,
,,,0.006104000000,   0.28000,
,,,0.006108000000,   0.26000,
,,,0.006112000000,   0.26000,
,,,0.006116000000,   0.26000,
,,,0.006120000000,   0.26000,
,,,0.006124000000,   0.28000,
,,,0.006128000000,   0.26000,
,,,0.006132000000,   0.28000,
,,,0.006136000000,   0.26000,
,,,0.006140000000,   0.26000,
,,,0.006144000000,   0.28000,
,,,0.006148000000,   0.28000,
,,,0.006152000000,   0.28000,
,,,0.006156000000,   0.26000,
,,,0.006160000000,   0.26000,
,,,0.006164000000,   0.26000,
,,,0.006168000000,   0.26000,
,,,0.006172000000,   0.26000,
,,,0.006176000000,   0.28000,
,,,0.006180000000,   0.28000,
,,,0.006184000000,   0.26000,
,,,0.006188000000,   0.26000,
,,,0.006192000000,   0.26000,
,,,0.006196000000,   0.26000,
,,,0.006200000000,   0.28000,
,,,0.006204000000,   0.28000,
,,,0.006208000000,   0.26000,
,,,0.006212000000,   0.26000,
,,,0.006216000000,   0.26000,
,,,0.006220000000,   0.28000,
,,,0.006224000000,   0.28000,
,,,0.006228000000,   0.28000,
,,,0.006232000000,   0.28000,
,,,0.006236000000,   0.28000,
,,,0.006240000000,   0.28000,
,,,0.006244000000,   0.28000,
,,,0.006248000000,   0.30000,
,,,0.006252000000,   0.28000,
,,,0.006256000000,   0.30000,
,,,0.006260000000,   0.30000,
,,,0.006264000000,   0.28000,
,,,0.006268000000,   0.30000,
,,,0.006272000000,   0.32000,
,,,0.006276000000,   0.32000,
,,,0.006280000000,   0.32000,
,,,0.006284000000,   0.30000,
,,,0.006288000000,   0.32000,
,,,0.006292000000,   0.32000,
,,,0.006296000000,   0.34000,
,,,0.006300000000,   0.34000,
,,,0.006304000000,   0.34000,
,,,0.006308000000,   0.36000,
,,,0.006312000000,   0.36000,
,,,0.006316000000,   0.36000,
,,,0.006320000000,   0.36000,
,,,0.006324000000,   0.40000,
,,,0.006328000000,   0.40000,
,,,0.006332000000,   0.38000,
,,,0.006336000000,   0.42000,
,,,0.006340000000,   0.40000,
,,,0.006344000000,   0.40000,
,,,0.006348000000,   0.42000,
,,,0.006352000000,   0.40000,
,,,0.006356000000,   0.44000,
,,,0.006360000000,   0.44000,
,,,0.006364000000,   0.44000,
,,,0.006368000000,   0.46000,
,,,0.006372000000,   0.46000,
,,,0.006376000000,   0.48000,
,,,0.006380000000,   0.50000,
,,,0.006384000000,   0.52000,
,,,0.006388000000,   0.54000,
,,,0.006392000000,   0.58000,
,,,0.006396000000,   0.66000,
,,,0.006400000000,   0.70000,
,,,0.006404000000,   0.76000,
,,,0.006408000000,   0.82000,
,,,0.006412000000,   0.86000,
,,,0.006416000000,   0.92000,
,,,0.006420000000,   0.98000,
,,,0.006424000000,   1.04000,
,,,0.006428000000,   1.10000,
,,,0.006432000000,   1.14000,
,,,0.006436000000,   1.20000,
,,,0.006440000000,   1.26000,
,,,0.006444000000,   1.32000,
,,,0.006448000000,   1.40000,
,,,0.006452000000,   1.46000,
,,,0.006456000000,   1.50000,
,,,0.006460000000,   1.56000,
,,,0.006464000000,   1.60000,
,,,0.006468000000,   1.64000,
,,,0.006472000000,   1.68000,
,,,0.006476000000,   1.74000,
,,,0.006480000000,   1.76000,
,,,0.006484000000,   1.80000,
,,,0.006488000000,   1.82000,
,,,0.006492000000,   1.86000,
,,,0.006496000000,   1.86000,
,,,0.006500000000,   1.90000,
,,,0.006504000000,   1.92000,
,,,0.006508000000,   1.90000,
,,,0.006512000000,   1.94000,
,,,0.006516000000,   1.94000,
,,,0.006520000000,   1.94000,
,,,0.006524000000,   1.96000,
,,,0.006528000000,   1.96000,
,,,0.006532000000,   1.96000,
,,,0.006536000000,   1.92000,
,,,0.006540000000,   1.94000,
,,,0.006544000000,   1.90000,
,,,0.006548000000,   1.90000,
,,,0.006552000000,   1.88000,
,,,0.006556000000,   1.86000,
,,,0.006560000000,   1.84000,
,,,0.006564000000,   1.80000,
,,,0.006568000000,   1.76000,
,,,0.006572000000,   1.76000,
,,,0.006576000000,   1.70000,
,,,0.006580000000,   1.66000,
,,,0.006584000000,   1.60000,
,,,0.006588000000,   1.56000,
,,,0.006592000000,   1.50000,
,,,0.006596000000,   1.46000,
,,,0.006600000000,   1.44000,
,,,0.006604000000,   1.36000,
,,,0.006608000000,   1.32000,
,,,0.006612000000,   1.22000,
,,,0.006616000000,   1.16000,
,,,0.006620000000,   1.10000,
,,,0.006624000000,   1.04000,
,,,0.006628000000,   0.98000,
,,,0.006632000000,   0.96000,
,,,0.006636000000,   0.90000,
,,,0.006640000000,   0.80000,
,,,0.006644000000,   0.76000,
,,,0.006648000000,   0.72000,
,,,0.006652000000,   0.66000,
,,,0.006656000000,   0.64000,
,,,0.006660000000,   0.60000,
,,,0.006664000000,   0.56000,
,,,0.006668000000,   0.56000,
,,,0.006672000000,   0.54000,
,,,0.006676000000,   0.52000,
,,,0.006680000000,   0.50000,
,,,0.006684000000,   0.50000,
,,,0.006688000000,   0.46000,
,,,0.006692000000,   0.46000,
,,,0.006696000000,   0.46000,
,,,0.006700000000,   0.46000,
,,,0.006704000000,   0.46000,
,,,0.006708000000,   0.46000,
,,,0.006712000000,   0.44000,
,,,0.006716000000,   0.44000,
,,,0.006720000000,   0.44000,
,,,0.006724000000,   0.44000,
,,,0.006728000000,   0.42000,
,,,0.006732000000,   0.40000,
,,,0.006736000000,   0.40000,
,,,0.006740000000,   0.40000,
,,,0.006744000000,   0.40000,
,,,0.006748000000,   0.40000,
,,,0.006752000000,   0.36000,
,,,0.006756000000,   0.34000,
,,,0.006760000000,   0.36000,
,,,0.006764000000,   0.34000,
,,,0.006768000000,   0.34000,
,,,0.006772000000,   0.34000,
,,,0.006776000000,   0.34000,
,,,0.006780000000,   0.32000,
,,,0.006784000000,   0.32000,
,,,0.006788000000,   0.32000,
,,,0.006792000000,   0.32000,
,,,0.006796000000,   0.30000,
,,,0.006800000000,   0.30000,
,,,0.006804000000,   0.32000,
,,,0.006808000000,   0.30000,
,,,0.006812000000,   0.32000,
,,,0.006816000000,   0.30000,
,,,0.006820000000,   0.30000,
,,,0.006824000000,   0.30000,
,,,0.006828000000,   0.30000,
,,,0.006832000000,   0.30000,
,,,0.006836000000,   0.28000,
,,,0.006840000000,   0.28000,
,,,0.006844000000,   0.28000,
,,,0.006848000000,   0.30000,
,,,0.006852000000,   0.28000,
,,,0.006856000000,   0.28000,
,,,0.006860000000,   0.28000,
,,,0.006864000000,   0.28000,
,,,0.006868000000,   0.28000,
,,,0.006872000000,   0.28000,
,,,0.006876000000,   0.30000,
,,,0.006880000000,   0.28000,
,,,0.006884000000,   0.26000,
,,,0.006888000000,   0.28000,
,,,0.006892000000,   0.26000,
,,,0.006896000000,   0.28000,
,,,0.006900000000,   0.28000,
,,,0.006904000000,   0.28000,
,,,0.006908000000,   0.26000,
,,,0.006912000000,   0.26000,
,,,0.006916000000,   0.26000,
,,,0.006920000000,   0.26000,
,,,0.006924000000,   0.26000,
,,,0.006928000000,   0.28000,
,,,0.006932000000,   0.28000,
,,,0.006936000000,   0.28000,
,,,0.006940000000,   0.28000,
,,,0.006944000000,   0.28000,
,,,0.006948000000,   0.26000,
,,,0.006952000000,   0.26000,
,,,0.006956000000,   0.26000,
,,,0.006960000000,   0.26000,
,,,0.006964000000,   0.28000,
,,,0.006968000000,   0.26000,
,,,0.006972000000,   0.26000,
,,,0.006976000000,   0.28000,
,,,0.006980000000,   0.26000,
,,,0.006984000000,   0.26000,
,,,0.006988000000,   0.28000,
,,,0.006992000000,   0.26000,
,,,0.006996000000,   0.26000,
,,,0.007000000000,   0.26000,
,,,0.007004000000,   0.26000,
,,,0.007008000000,   0.26000,
,,,0.007012000000,   0.26000,
,,,0.007016000000,   0.28000,
,,,0.007020000000,   0.26000,
,,,0.007024000000,   0.26000,
,,,0.007028000000,   0.26000,
,,,0.007032000000,   0.26000,
,,,0.007036000000,   0.26000,
,,,0.007040000000,   0.26000,
,,,0.007044000000,   0.26000,
,,,0.007048000000,   0.26000,
,,,0.007052000000,   0.26000,
,,,0.007056000000,   0.26000,
,,,0.007060000000,   0.26000,
,,,0.007064000000,   0.26000,
,,,0.007068000000,   0.26000,
,,,0.007072000000,   0.26000,
,,,0.007076000000,   0.26000,
,,,0.007080000000,   0.26000,
,,,0.007084000000,   0.26000,
,,,0.007088000000,   0.26000,
,,,0.007092000000,   0.26000,
,,,0.007096000000,   0.26000,
,,,0.007100000000,   0.26000,
,,,0.007104000000,   0.26000,
,,,0.007108000000,   0.26000,
,,,0.007112000000,   0.26000,
,,,0.007116000000,   0.26000,
,,,0.007120000000,   0.26000,
,,,0.007124000000,   0.26000,
,,,0.007128000000,   0.26000,
,,,0.007132000000,   0.26000,
,,,0.007136000000,   0.26000,
,,,0.007140000000,   0.26000,
,,,0.007144000000,   0.26000,
,,,0.007148000000,   0.26000,
,,,0.007152000000,   0.26000,
,,,0.007156000000,   0.26000,
,,,0.007160000000,   0.26000,
,,,0.007164000000,   0.26000,
,,,0.007168000000,   0.26000,
,,,0.007172000000,   0.26000,
,,,0.007176000000,   0.26000,
,,,0.007180000000,   0.28000,
,,,0.007184000000,   0.26000,
,,,0.007188000000,   0.26000,
,,,0.007192000000,   0.26000,
,,,0.007196000000,   0.26000,
,,,0.007200000000,   0.26000,
,,,0.007204000000,   0.26000,
,,,0.007208000000,   0.26000,
,,,0.007212000000,   0.26000,
,,,0.007216000000,   0.24000,
,,,0.007220000000,   0.26000,
,,,0.007224000000,   0.26000,
,,,0.007228000000,   0.26000,
,,,0.007232000000,   0.26000,
,,,0.007236000000,   0.26000,
,,,0.007240000000,   0.26000,
,,,0.007244000000,   0.26000,
,,,0.007248000000,   0.26000,
,,,0.007252000000,   0.28000,
,,,0.007256000000,   0.26000,
,,,0.007260000000,   0.26000,
,,,0.007264000000,   0.26000,
,,,0.007268000000,   0.26000,
,,,0.007272000000,   0.26000,
,,,0.007276000000,   0.26000,
,,,0.007280000000,   0.26000,
,,,0.007284000000,   0.26000,
,,,0.007288000000,   0.26000,
,,,0.007292000000,   0.26000,
,,,0.007296000000,   0.26000,
,,,0.007300000000,   0.26000,
,,,0.007304000000,   0.26000,
,,,0.007308000000,   0.26000,
,,,0.007312000000,   0.26000,
,,,0.007316000000,   0.26000,
,,,0.007320000000,   0.26000,
,,,0.007324000000,   0.24000,
,,,0.007328000000,   0.26000,
,,,0.007332000000,   0.26000,
,,,0.007336000000,   0.26000,
,,,0.007340000000,   0.26000,
,,,0.007344000000,   0.26000,
,,,0.007348000000,   0.26000,
,,,0.007352000000,   0.26000,
,,,0.007356000000,   0.26000,
,,,0.007360000000,   0.26000,
,,,0.007364000000,   0.26000,
,,,0.007368000000,   0.26000,
,,,0.007372000000,   0.26000,
,,,0.007376000000,   0.26000,
,,,0.007380000000,   0.26000,
,,,0.007384000000,   0.26000,
,,,0.007388000000,   0.26000,
,,,0.007392000000,   0.26000,
,,,0.007396000000,   0.26000,
,,,0.007400000000,   0.26000,
,,,0.007404000000,   0.26000,
,,,0.007408000000,   0.26000,
,,,0.007412000000,   0.26000,
,,,0.007416000000,   0.26000,
,,,0.007420000000,   0.26000,
,,,0.007424000000,   0.26000,
,,,0.007428000000,   0.26000,
,,,0.007432000000,   0.28000,
,,,0.007436000000,   0.26000,
,,,0.007440000000,   0.26000,
,,,0.007444000000,   0.26000,
,,,0.007448000000,   0.26000,
,,,0.007452000000,   0.26000,
,,,0.007456000000,   0.26000,
,,,0.007460000000,   0.26000,
,,,0.007464000000,   0.28000,
,,,0.007468000000,   0.26000,
,,,0.007472000000,   0.26000,
,,,0.007476000000,   0.26000,
,,,0.007480000000,   0.26000,
,,,0.007484000000,   0.26000,
,,,0.007488000000,   0.26000,
,,,0.007492000000,   0.26000,
,,,0.007496000000,   0.26000,
,,,0.007500000000,   0.26000,
,,,0.007504000000,   0.26000,
,,,0.007508000000,   0.26000,
,,,0.007512000000,   0.26000,
,,,0.007516000000,   0.26000,
,,,0.007520000000,   0.26000,
,,,0.007524000000,   0.28000,
,,,0.007528000000,   0.26000,
,,,0.007532000000,   0.26000,
,,,0.007536000000,   0.26000,
,,,0.007540000000,   0.26000,
,,,0.007544000000,   0.26000,
,,,0.007548000000,   0.26000,
,,,0.007552000000,   0.26000,
,,,0.007556000000,   0.26000,
,,,0.007560000000,   0.26000,
,,,0.007564000000,   0.26000,
,,,0.007568000000,   0.26000,
,,,0.007572000000,   0.26000,
,,,0.007576000000,   0.26000,
,,,0.007580000000,   0.26000,
,,,0.007584000000,   0.26000,
,,,0.007588000000,   0.26000,
,,,0.007592000000,   0.26000,
,,,0.007596000000,   0.26000,
,,,0.007600000000,   0.26000,
,,,0.007604000000,   0.26000,
,,,0.007608000000,   0.26000,
,,,0.007612000000,   0.26000,
,,,0.007616000000,   0.26000,
,,,0.007620000000,   0.26000,
,,,0.007624000000,   0.26000,
,,,0.007628000000,   0.26000,
,,,0.007632000000,   0.28000,
,,,0.007636000000,   0.26000,
,,,0.007640000000,   0.26000,
,,,0.007644000000,   0.26000,
,,,0.007648000000,   0.26000,
,,,0.007652000000,   0.26000,
