pnmr/SS-relaxation-mineral-water/Method-1/ALL0055/F0055CH1.CSV

Record Length,2.500000e+03,,   0.031640000000,   0.28000,
Sample Interval,4.000000e-06,,   0.031644000000,   0.26000,
Trigger Point,-7.910000000000e+03,,   0.031648000000,   0.26000,
,,,   0.031652000000,   0.26000,
,,,   0.031656000000,   0.28000,
,,,   0.031660000000,   0.30000,
Source,CH1,,   0.031664000000,   0.26000,
Vertical Units,V,,   0.031668000000,   0.26000,
Vertical Scale,5.000000e-01,,   0.031672000000,   0.28000,
Vertical Offset,-1.820000e+00,,   0.031676000000,   0.28000,
Horizontal Units,s,,   0.031680000000,   0.28000,
Horizontal Scale,1.000000e-03,,   0.031684000000,   0.26000,
Pt Fmt,Y,,   0.031688000000,   0.28000,
Yzero,0.000000e+00,,   0.031692000000,   0.26000,
Probe Atten,1.000000e+00,,   0.031696000000,   0.26000,
Model Number,TBS1052B,,   0.031700000000,   0.26000,
Serial Number,C018313,,   0.031704000000,   0.26000,
Firmware Version,FV:v4.06,,   0.031708000000,   0.28000,
,,,0.031712000000,   0.28000,
,,,0.031716000000,   0.28000,
,,,0.031720000000,   0.30000,
,,,0.031724000000,   0.28000,
,,,0.031728000000,   0.28000,
,,,0.031732000000,   0.28000,
,,,0.031736000000,   0.28000,
,,,0.031740000000,   0.26000,
,,,0.031744000000,   0.28000,
,,,0.031748000000,   0.26000,
,,,0.031752000000,   0.26000,
,,,0.031756000000,   0.28000,
,,,0.031760000000,   0.28000,
,,,0.031764000000,   0.28000,
,,,0.031768000000,   0.28000,
,,,0.031772000000,   0.28000,
,,,0.031776000000,   0.28000,
,,,0.031780000000,   0.30000,
,,,0.031784000000,   0.28000,
,,,0.031788000000,   0.26000,
,,,0.031792000000,   0.26000,
,,,0.031796000000,   0.26000,
,,,0.031800000000,   0.28000,
,,,0.031804000000,   0.26000,
,,,0.031808000000,   0.26000,
,,,0.031812000000,   0.26000,
,,,0.031816000000,   0.28000,
,,,0.031820000000,   0.26000,
,,,0.031824000000,   0.26000,
,,,0.031828000000,   0.26000,
,,,0.031832000000,   0.26000,
,,,0.031836000000,   0.26000,
,,,0.031840000000,   0.26000,
,,,0.031844000000,   0.26000,
,,,0.031848000000,   0.28000,
,,,0.031852000000,   0.28000,
,,,0.031856000000,   0.26000,
,,,0.031860000000,   0.26000,
,,,0.031864000000,   0.26000,
,,,0.031868000000,   0.26000,
,,,0.031872000000,   0.28000,
,,,0.031876000000,   0.28000,
,,,0.031880000000,   0.26000,
,,,0.031884000000,   0.28000,
,,,0.031888000000,   0.26000,
,,,0.031892000000,   0.28000,
,,,0.031896000000,   0.26000,
,,,0.031900000000,   0.28000,
,,,0.031904000000,   0.26000,
,,,0.031908000000,   0.28000,
,,,0.031912000000,   0.28000,
,,,0.031916000000,   0.28000,
,,,0.031920000000,   0.26000,
,,,0.031924000000,   0.28000,
,,,0.031928000000,   0.28000,
,,,0.031932000000,   0.28000,
,,,0.031936000000,   0.26000,
,,,0.031940000000,   0.28000,
,,,0.031944000000,   0.28000,
,,,0.031948000000,   0.26000,
,,,0.031952000000,   0.28000,
,,,0.031956000000,   0.28000,
,,,0.031960000000,   0.26000,
,,,0.031964000000,   0.28000,
,,,0.031968000000,   0.26000,
,,,0.031972000000,   0.30000,
,,,0.031976000000,   0.28000,
,,,0.031980000000,   0.28000,
,,,0.031984000000,   0.26000,
,,,0.031988000000,   0.28000,
,,,0.031992000000,   0.28000,
,,,0.031996000000,   0.26000,
,,,0.032000000000,   0.28000,
,,,0.032004000000,   0.28000,
,,,0.032008000000,   0.26000,
,,,0.032012000000,   0.26000,
,,,0.032016000000,   0.26000,
,,,0.032020000000,   0.26000,
,,,0.032024000000,   0.28000,
,,,0.032028000000,   0.28000,
,,,0.032032000000,   0.28000,
,,,0.032036000000,   0.28000,
,,,0.032040000000,   0.26000,
,,,0.032044000000,   0.28000,
,,,0.032048000000,   0.28000,
,,,0.032052000000,   0.26000,
,,,0.032056000000,   0.28000,
,,,0.032060000000,   0.28000,
,,,0.032064000000,   0.28000,
,,,0.032068000000,   0.26000,
,,,0.032072000000,   0.26000,
,,,0.032076000000,   0.28000,
,,,0.032080000000,   0.26000,
,,,0.032084000000,   0.26000,
,,,0.032088000000,   0.28000,
,,,0.032092000000,   0.28000,
,,,0.032096000000,   0.28000,
,,,0.032100000000,   0.28000,
,,,0.032104000000,   0.28000,
,,,0.032108000000,   0.28000,
,,,0.032112000000,   0.26000,
,,,0.032116000000,   0.26000,
,,,0.032120000000,   0.28000,
,,,0.032124000000,   0.28000,
,,,0.032128000000,   0.26000,
,,,0.032132000000,   0.26000,
,,,0.032136000000,   0.28000,
,,,0.032140000000,   0.28000,
,,,0.032144000000,   0.28000,
,,,0.032148000000,   0.28000,
,,,0.032152000000,   0.28000,
,,,0.032156000000,   0.28000,
,,,0.032160000000,   0.28000,
,,,0.032164000000,   0.28000,
,,,0.032168000000,   0.28000,
,,,0.032172000000,   0.28000,
,,,0.032176000000,   0.26000,
,,,0.032180000000,   0.26000,
,,,0.032184000000,   0.28000,
,,,0.032188000000,   0.26000,
,,,0.032192000000,   0.28000,
,,,0.032196000000,   0.28000,
,,,0.032200000000,   0.28000,
,,,0.032204000000,   0.30000,
,,,0.032208000000,   0.28000,
,,,0.032212000000,   0.28000,
,,,0.032216000000,   0.28000,
,,,0.032220000000,   0.28000,
,,,0.032224000000,   0.26000,
,,,0.032228000000,   0.26000,
,,,0.032232000000,   0.28000,
,,,0.032236000000,   0.28000,
,,,0.032240000000,   0.28000,
,,,0.032244000000,   0.26000,
,,,0.032248000000,   0.28000,
,,,0.032252000000,   0.28000,
,,,0.032256000000,   0.26000,
,,,0.032260000000,   0.28000,
,,,0.032264000000,   0.28000,
,,,0.032268000000,   0.28000,
,,,0.032272000000,   0.26000,
,,,0.032276000000,   0.28000,
,,,0.032280000000,   0.28000,
,,,0.032284000000,   0.28000,
,,,0.032288000000,   0.28000,
,,,0.032292000000,   0.26000,
,,,0.032296000000,   0.26000,
,,,0.032300000000,   0.28000,
,,,0.032304000000,   0.26000,
,,,0.032308000000,   0.26000,
,,,0.032312000000,   0.26000,
,,,0.032316000000,   0.26000,
,,,0.032320000000,   0.28000,
,,,0.032324000000,   0.28000,
,,,0.032328000000,   0.28000,
,,,0.032332000000,   0.28000,
,,,0.032336000000,   0.26000,
,,,0.032340000000,   0.28000,
,,,0.032344000000,   0.26000,
,,,0.032348000000,   0.26000,
,,,0.032352000000,   0.28000,
,,,0.032356000000,   0.28000,
,,,0.032360000000,   0.26000,
,,,0.032364000000,   0.28000,
,,,0.032368000000,   0.28000,
,,,0.032372000000,   0.28000,
,,,0.032376000000,   0.26000,
,,,0.032380000000,   0.26000,
,,,0.032384000000,   0.26000,
,,,0.032388000000,   0.28000,
,,,0.032392000000,   0.26000,
,,,0.032396000000,   0.28000,
,,,0.032400000000,   0.26000,
,,,0.032404000000,   0.28000,
,,,0.032408000000,   0.28000,
,,,0.032412000000,   0.28000,
,,,0.032416000000,   0.26000,
,,,0.032420000000,   0.28000,
,,,0.032424000000,   0.26000,
,,,0.032428000000,   0.28000,
,,,0.032432000000,   0.26000,
,,,0.032436000000,   0.28000,
,,,0.032440000000,   0.26000,
,,,0.032444000000,   0.26000,
,,,0.032448000000,   0.26000,
,,,0.032452000000,   0.28000,
,,,0.032456000000,   0.28000,
,,,0.032460000000,   0.26000,
,,,0.032464000000,   0.26000,
,,,0.032468000000,   0.28000,
,,,0.032472000000,   0.26000,
,,,0.032476000000,   0.26000,
,,,0.032480000000,   0.28000,
,,,0.032484000000,   0.26000,
,,,0.032488000000,   0.26000,
,,,0.032492000000,   0.28000,
,,,0.032496000000,   0.26000,
,,,0.032500000000,   0.28000,
,,,0.032504000000,   0.28000,
,,,0.032508000000,   0.28000,
,,,0.032512000000,   0.26000,
,,,0.032516000000,   0.26000,
,,,0.032520000000,   0.26000,
,,,0.032524000000,   0.28000,
,,,0.032528000000,   0.26000,
,,,0.032532000000,   0.26000,
,,,0.032536000000,   0.28000,
,,,0.032540000000,   0.28000,
,,,0.032544000000,   0.26000,
,,,0.032548000000,   0.26000,
,,,0.032552000000,   0.28000,
,,,0.032556000000,   0.26000,
,,,0.032560000000,   0.28000,
,,,0.032564000000,   0.28000,
,,,0.032568000000,   0.28000,
,,,0.032572000000,   0.26000,
,,,0.032576000000,   0.28000,
,,,0.032580000000,   0.28000,
,,,0.032584000000,   0.26000,
,,,0.032588000000,   0.26000,
,,,0.032592000000,   0.26000,
,,,0.032596000000,   0.28000,
,,,0.032600000000,   0.26000,
,,,0.032604000000,   0.28000,
,,,0.032608000000,   0.26000,
,,,0.032612000000,   0.26000,
,,,0.032616000000,   0.28000,
,,,0.032620000000,   0.28000,
,,,0.032624000000,   0.26000,
,,,0.032628000000,   0.28000,
,,,0.032632000000,   0.26000,
,,,0.032636000000,   0.28000,
,,,0.032640000000,   0.28000,
,,,0.032644000000,   0.26000,
,,,0.032648000000,   0.28000,
,,,0.032652000000,   0.26000,
,,,0.032656000000,   0.26000,
,,,0.032660000000,   0.26000,
,,,0.032664000000,   0.26000,
,,,0.032668000000,   0.26000,
,,,0.032672000000,   0.28000,
,,,0.032676000000,   0.28000,
,,,0.032680000000,   0.26000,
,,,0.032684000000,   0.26000,
,,,0.032688000000,   0.26000,
,,,0.032692000000,   0.28000,
,,,0.032696000000,   0.26000,
,,,0.032700000000,   0.26000,
,,,0.032704000000,   0.28000,
,,,0.032708000000,   0.26000,
,,,0.032712000000,   0.26000,
,,,0.032716000000,   0.26000,
,,,0.032720000000,   0.26000,
,,,0.032724000000,   0.28000,
,,,0.032728000000,   0.26000,
,,,0.032732000000,   0.28000,
,,,0.032736000000,   0.26000,
,,,0.032740000000,   0.26000,
,,,0.032744000000,   0.28000,
,,,0.032748000000,   0.28000,
,,,0.032752000000,   0.26000,
,,,0.032756000000,   0.28000,
,,,0.032760000000,   0.26000,
,,,0.032764000000,   0.28000,
,,,0.032768000000,   0.26000,
,,,0.032772000000,   0.28000,
,,,0.032776000000,   0.28000,
,,,0.032780000000,   0.26000,
,,,0.032784000000,   0.26000,
,,,0.032788000000,   0.28000,
,,,0.032792000000,   0.26000,
,,,0.032796000000,   0.28000,
,,,0.032800000000,   0.26000,
,,,0.032804000000,   0.26000,
,,,0.032808000000,   0.28000,
,,,0.032812000000,   0.28000,
,,,0.032816000000,   0.28000,
,,,0.032820000000,   0.28000,
,,,0.032824000000,   0.28000,
,,,0.032828000000,   0.28000,
,,,0.032832000000,   0.26000,
,,,0.032836000000,   0.28000,
,,,0.032840000000,   0.28000,
,,,0.032844000000,   0.28000,
,,,0.032848000000,   0.28000,
,,,0.032852000000,   0.28000,
,,,0.032856000000,   0.28000,
,,,0.032860000000,   0.26000,
,,,0.032864000000,   0.26000,
,,,0.032868000000,   0.28000,
,,,0.032872000000,   0.28000,
,,,0.032876000000,   0.28000,
,,,0.032880000000,   0.28000,
,,,0.032884000000,   0.28000,
,,,0.032888000000,   0.28000,
,,,0.032892000000,   0.26000,
,,,0.032896000000,   0.26000,
,,,0.032900000000,   0.28000,
,,,0.032904000000,   0.28000,
,,,0.032908000000,   0.28000,
,,,0.032912000000,   0.26000,
,,,0.032916000000,   0.28000,
,,,0.032920000000,   0.26000,
,,,0.032924000000,   0.28000,
,,,0.032928000000,   0.28000,
,,,0.032932000000,   0.28000,
,,,0.032936000000,   0.26000,
,,,0.032940000000,   0.26000,
,,,0.032944000000,   0.28000,
,,,0.032948000000,   0.26000,
,,,0.032952000000,   0.26000,
,,,0.032956000000,   0.26000,
,,,0.032960000000,   0.26000,
,,,0.032964000000,   0.26000,
,,,0.032968000000,   0.28000,
,,,0.032972000000,   0.26000,
,,,0.032976000000,   0.28000,
,,,0.032980000000,   0.26000,
,,,0.032984000000,   0.28000,
,,,0.032988000000,   0.28000,
,,,0.032992000000,   0.26000,
,,,0.032996000000,   0.28000,
,,,0.033000000000,   0.28000,
,,,0.033004000000,   0.26000,
,,,0.033008000000,   0.28000,
,,,0.033012000000,   0.26000,
,,,0.033016000000,   0.28000,
,,,0.033020000000,   0.28000,
,,,0.033024000000,   0.26000,
,,,0.033028000000,   0.26000,
,,,0.033032000000,   0.26000,
,,,0.033036000000,   0.28000,
,,,0.033040000000,   0.28000,
,,,0.033044000000,   0.28000,
,,,0.033048000000,   0.28000,
,,,0.033052000000,   0.28000,
,,,0.033056000000,   0.28000,
,,,0.033060000000,   0.26000,
,,,0.033064000000,   0.28000,
,,,0.033068000000,   0.26000,
,,,0.033072000000,   0.28000,
,,,0.033076000000,   0.26000,
,,,0.033080000000,   0.28000,
,,,0.033084000000,   0.28000,
,,,0.033088000000,   0.28000,
,,,0.033092000000,   0.28000,
,,,0.033096000000,   0.26000,
,,,0.033100000000,   0.26000,
,,,0.033104000000,   0.28000,
,,,0.033108000000,   0.26000,
,,,0.033112000000,   0.28000,
,,,0.033116000000,   0.26000,
,,,0.033120000000,   0.28000,
,,,0.033124000000,   0.28000,
,,,0.033128000000,   0.28000,
,,,0.033132000000,   0.26000,
,,,0.033136000000,   0.28000,
,,,0.033140000000,   0.26000,
,,,0.033144000000,   0.26000,
,,,0.033148000000,   0.28000,
,,,0.033152000000,   0.28000,
,,,0.033156000000,   0.28000,
,,,0.033160000000,   0.26000,
,,,0.033164000000,   0.28000,
,,,0.033168000000,   0.28000,
,,,0.033172000000,   0.28000,
,,,0.033176000000,   0.28000,
,,,0.033180000000,   0.28000,
,,,0.033184000000,   0.28000,
,,,0.033188000000,   0.28000,
,,,0.033192000000,   0.28000,
,,,0.033196000000,   0.28000,
,,,0.033200000000,   0.28000,
,,,0.033204000000,   0.28000,
,,,0.033208000000,   0.28000,
,,,0.033212000000,   0.26000,
,,,0.033216000000,   0.28000,
,,,0.033220000000,   0.28000,
,,,0.033224000000,   0.28000,
,,,0.033228000000,   0.28000,
,,,0.033232000000,   0.28000,
,,,0.033236000000,   0.26000,
,,,0.033240000000,   0.28000,
,,,0.033244000000,   0.28000,
,,,0.033248000000,   0.26000,
,,,0.033252000000,   0.28000,
,,,0.033256000000,   0.28000,
,,,0.033260000000,   0.28000,
,,,0.033264000000,   0.28000,
,,,0.033268000000,   0.28000,
,,,0.033272000000,   0.28000,
,,,0.033276000000,   0.28000,
,,,0.033280000000,   0.26000,
,,,0.033284000000,   0.28000,
,,,0.033288000000,   0.26000,
,,,0.033292000000,   0.28000,
,,,0.033296000000,   0.28000,
,,,0.033300000000,   0.28000,
,,,0.033304000000,   0.28000,
,,,0.033308000000,   0.28000,
,,,0.033312000000,   0.28000,
,,,0.033316000000,   0.28000,
,,,0.033320000000,   0.28000,
,,,0.033324000000,   0.28000,
,,,0.033328000000,   0.26000,
,,,0.033332000000,   0.26000,
,,,0.033336000000,   0.26000,
,,,0.033340000000,   0.26000,
,,,0.033344000000,   0.28000,
,,,0.033348000000,   0.26000,
,,,0.033352000000,   0.28000,
,,,0.033356000000,   0.28000,
,,,0.033360000000,   0.26000,
,,,0.033364000000,   0.28000,
,,,0.033368000000,   0.26000,
,,,0.033372000000,   0.28000,
,,,0.033376000000,   0.26000,
,,,0.033380000000,   0.28000,
,,,0.033384000000,   0.26000,
,,,0.033388000000,   0.28000,
,,,0.033392000000,   0.28000,
,,,0.033396000000,   0.26000,
,,,0.033400000000,   0.26000,
,,,0.033404000000,   0.26000,
,,,0.033408000000,   0.28000,
,,,0.033412000000,   0.26000,
,,,0.033416000000,   0.26000,
,,,0.033420000000,   0.28000,
,,,0.033424000000,   0.26000,
,,,0.033428000000,   0.28000,
,,,0.033432000000,   0.26000,
,,,0.033436000000,   0.28000,
,,,0.033440000000,   0.26000,
,,,0.033444000000,   0.28000,
,,,0.033448000000,   0.28000,
,,,0.033452000000,   0.28000,
,,,0.033456000000,   0.28000,
,,,0.033460000000,   0.26000,
,,,0.033464000000,   0.28000,
,,,0.033468000000,   0.26000,
,,,0.033472000000,   0.26000,
,,,0.033476000000,   0.28000,
,,,0.033480000000,   0.26000,
,,,0.033484000000,   0.28000,
,,,0.033488000000,   0.28000,
,,,0.033492000000,   0.28000,
,,,0.033496000000,   0.28000,
,,,0.033500000000,   0.28000,
,,,0.033504000000,   0.26000,
,,,0.033508000000,   0.28000,
,,,0.033512000000,   0.26000,
,,,0.033516000000,   0.28000,
,,,0.033520000000,   0.28000,
,,,0.033524000000,   0.28000,
,,,0.033528000000,   0.26000,
,,,0.033532000000,   0.26000,
,,,0.033536000000,   0.26000,
,,,0.033540000000,   0.28000,
,,,0.033544000000,   0.28000,
,,,0.033548000000,   0.28000,
,,,0.033552000000,   0.28000,
,,,0.033556000000,   0.26000,
,,,0.033560000000,   0.28000,
,,,0.033564000000,   0.28000,
,,,0.033568000000,   0.26000,
,,,0.033572000000,   0.26000,
,,,0.033576000000,   0.28000,
,,,0.033580000000,   0.30000,
,,,0.033584000000,   0.26000,
,,,0.033588000000,   0.28000,
,,,0.033592000000,   0.28000,
,,,0.033596000000,   0.28000,
,,,0.033600000000,   0.28000,
,,,0.033604000000,   0.28000,
,,,0.033608000000,   0.28000,
,,,0.033612000000,   0.28000,
,,,0.033616000000,   0.28000,
,,,0.033620000000,   0.28000,
,,,0.033624000000,   0.26000,
,,,0.033628000000,   0.26000,
,,,0.033632000000,   0.26000,
,,,0.033636000000,   0.26000,
,,,0.033640000000,   0.26000,
,,,0.033644000000,   0.26000,
,,,0.033648000000,   0.28000,
,,,0.033652000000,   0.26000,
,,,0.033656000000,   0.26000,
,,,0.033660000000,   0.28000,
,,,0.033664000000,   0.26000,
,,,0.033668000000,   0.28000,
,,,0.033672000000,   0.28000,
,,,0.033676000000,   0.28000,
,,,0.033680000000,   0.28000,
,,,0.033684000000,   0.28000,
,,,0.033688000000,   0.28000,
,,,0.033692000000,   0.26000,
,,,0.033696000000,   0.28000,
,,,0.033700000000,   0.28000,
,,,0.033704000000,   0.26000,
,,,0.033708000000,   0.28000,
,,,0.033712000000,   0.26000,
,,,0.033716000000,   0.28000,
,,,0.033720000000,   0.28000,
,,,0.033724000000,   0.28000,
,,,0.033728000000,   0.26000,
,,,0.033732000000,   0.26000,
,,,0.033736000000,   0.26000,
,,,0.033740000000,   0.28000,
,,,0.033744000000,   0.26000,
,,,0.033748000000,   0.28000,
,,,0.033752000000,   0.26000,
,,,0.033756000000,   0.26000,
,,,0.033760000000,   0.28000,
,,,0.033764000000,   0.28000,
,,,0.033768000000,   0.28000,
,,,0.033772000000,   0.28000,
,,,0.033776000000,   0.30000,
,,,0.033780000000,   0.28000,
,,,0.033784000000,   0.30000,
,,,0.033788000000,   0.28000,
,,,0.033792000000,   0.28000,
,,,0.033796000000,   0.28000,
,,,0.033800000000,   0.30000,
,,,0.033804000000,   0.28000,
,,,0.033808000000,   0.28000,
,,,0.033812000000,   0.28000,
,,,0.033816000000,   0.28000,
,,,0.033820000000,   0.28000,
,,,0.033824000000,   0.28000,
,,,0.033828000000,   0.28000,
,,,0.033832000000,   0.26000,
,,,0.033836000000,   0.28000,
,,,0.033840000000,   0.28000,
,,,0.033844000000,   0.30000,
,,,0.033848000000,   0.28000,
,,,0.033852000000,   0.30000,
,,,0.033856000000,   0.28000,
,,,0.033860000000,   0.28000,
,,,0.033864000000,   0.30000,
,,,0.033868000000,   0.28000,
,,,0.033872000000,   0.30000,
,,,0.033876000000,   0.30000,
,,,0.033880000000,   0.30000,
,,,0.033884000000,   0.30000,
,,,0.033888000000,   0.28000,
,,,0.033892000000,   0.30000,
,,,0.033896000000,   0.30000,
,,,0.033900000000,   0.30000,
,,,0.033904000000,   0.32000,
,,,0.033908000000,   0.34000,
,,,0.033912000000,   0.32000,
,,,0.033916000000,   0.34000,
,,,0.033920000000,   0.36000,
,,,0.033924000000,   0.40000,
,,,0.033928000000,   0.40000,
,,,0.033932000000,   0.40000,
,,,0.033936000000,   0.40000,
,,,0.033940000000,   0.44000,
,,,0.033944000000,   0.48000,
,,,0.033948000000,   0.48000,
,,,0.033952000000,   0.48000,
,,,0.033956000000,   0.50000,
,,,0.033960000000,   0.52000,
,,,0.033964000000,   0.52000,
,,,0.033968000000,   0.56000,
,,,0.033972000000,   0.58000,
,,,0.033976000000,   0.60000,
,,,0.033980000000,   0.60000,
,,,0.033984000000,   0.64000,
,,,0.033988000000,   0.64000,
,,,0.033992000000,   0.68000,
,,,0.033996000000,   0.68000,
,,,0.034000000000,   0.66000,
,,,0.034004000000,   0.70000,
,,,0.034008000000,   0.70000,
,,,0.034012000000,   0.70000,
,,,0.034016000000,   0.70000,
,,,0.034020000000,   0.72000,
,,,0.034024000000,   0.70000,
,,,0.034028000000,   0.70000,
,,,0.034032000000,   0.70000,
,,,0.034036000000,   0.70000,
,,,0.034040000000,   0.70000,
,,,0.034044000000,   0.70000,
,,,0.034048000000,   0.68000,
,,,0.034052000000,   0.68000,
,,,0.034056000000,   0.64000,
,,,0.034060000000,   0.64000,
,,,0.034064000000,   0.64000,
,,,0.034068000000,   0.60000,
,,,0.034072000000,   0.62000,
,,,0.034076000000,   0.58000,
,,,0.034080000000,   0.56000,
,,,0.034084000000,   0.56000,
,,,0.034088000000,   0.54000,
,,,0.034092000000,   0.50000,
,,,0.034096000000,   0.50000,
,,,0.034100000000,   0.48000,
,,,0.034104000000,   0.46000,
,,,0.034108000000,   0.44000,
,,,0.034112000000,   0.42000,
,,,0.034116000000,   0.42000,
,,,0.034120000000,   0.42000,
,,,0.034124000000,   0.42000,
,,,0.034128000000,   0.38000,
,,,0.034132000000,   0.36000,
,,,0.034136000000,   0.36000,
,,,0.034140000000,   0.36000,
,,,0.034144000000,   0.34000,
,,,0.034148000000,   0.34000,
,,,0.034152000000,   0.32000,
,,,0.034156000000,   0.32000,
,,,0.034160000000,   0.32000,
,,,0.034164000000,   0.32000,
,,,0.034168000000,   0.30000,
,,,0.034172000000,   0.30000,
,,,0.034176000000,   0.30000,
,,,0.034180000000,   0.30000,
,,,0.034184000000,   0.28000,
,,,0.034188000000,   0.30000,
,,,0.034192000000,   0.28000,
,,,0.034196000000,   0.28000,
,,,0.034200000000,   0.28000,
,,,0.034204000000,   0.28000,
,,,0.034208000000,   0.28000,
,,,0.034212000000,   0.30000,
,,,0.034216000000,   0.30000,
,,,0.034220000000,   0.30000,
,,,0.034224000000,   0.28000,
,,,0.034228000000,   0.28000,
,,,0.034232000000,   0.30000,
,,,0.034236000000,   0.28000,
,,,0.034240000000,   0.28000,
,,,0.034244000000,   0.28000,
,,,0.034248000000,   0.26000,
,,,0.034252000000,   0.28000,
